,Position,HPs,Mps,Aps,Action
0,0,20.0,10.0,1,"[{'name': 'Punch', 'type': 'physical', 'dmg': 50, 'succ': 0.9, 'mp_cost': 0}, {'name': 'Kick', 'type': 'physical', 'dmg': 60, 'succ': 0.8, 'mp_cost': 0}, {'name': 'Sword cleave', 'type': 'physical', 'dmg': 80, 'succ': 0.8, 'mp_cost': 0}, {'name': 'Magic sword cleave', 'type': 'physical', 'dmg': 100, 'succ': 0.55, 'mp_cost': 10}]"
1,1,20.0,28.0,1,"[{'name': 'Punch', 'type': 'physical', 'dmg': 50, 'succ': 0.9, 'mp_cost': 0}, {'name': 'Kick', 'type': 'physical', 'dmg': 60, 'succ': 0.8, 'mp_cost': 0}, {'name': 'Sword cleave', 'type': 'physical', 'dmg': 80, 'succ': 0.8, 'mp_cost': 0}, {'name': 'Magic sword cleave', 'type': 'physical', 'dmg': 100, 'succ': 0.55, 'mp_cost': 10}]"
2,2,20.0,46.0,1,"[{'name': 'Punch', 'type': 'physical', 'dmg': 50, 'succ': 0.9, 'mp_cost': 0}, {'name': 'Kick', 'type': 'physical', 'dmg': 60, 'succ': 0.8, 'mp_cost': 0}, {'name': 'Sword cleave', 'type': 'physical', 'dmg': 80, 'succ': 0.8, 'mp_cost': 0}, {'name': 'Magic sword cleave', 'type': 'physical', 'dmg': 100, 'succ': 0.55, 'mp_cost': 10}]"
3,3,20.0,64.0,1,"[{'name': 'Punch', 'type': 'physical', 'dmg': 50, 'succ': 0.9, 'mp_cost': 0}, {'name': 'Kick', 'type': 'physical', 'dmg': 60, 'succ': 0.8, 'mp_cost': 0}, {'name': 'Sword cleave', 'type': 'physical', 'dmg': 80, 'succ': 0.8, 'mp_cost': 0}, {'name': 'Magic sword cleave', 'type': 'physical', 'dmg': 100, 'succ': 0.55, 'mp_cost': 10}]"
4,4,20.0,82.0,1,"[{'name': 'Punch', 'type': 'physical', 'dmg': 50, 'succ': 0.9, 'mp_cost': 0}, {'name': 'Kick', 'type': 'physical', 'dmg': 60, 'succ': 0.8, 'mp_cost': 0}, {'name': 'Sword cleave', 'type': 'physical', 'dmg': 80, 'succ': 0.8, 'mp_cost': 0}, {'name': 'Magic sword cleave', 'type': 'physical', 'dmg': 100, 'succ': 0.55, 'mp_cost': 10}]"
5,5,20.0,100.0,1,"[{'name': 'Punch', 'type': 'physical', 'dmg': 50, 'succ': 0.9, 'mp_cost': 0}, {'name': 'Kick', 'type': 'physical', 'dmg': 60, 'succ': 0.8, 'mp_cost': 0}, {'name': 'Sword cleave', 'type': 'physical', 'dmg': 80, 'succ': 0.8, 'mp_cost': 0}, {'name': 'Magic sword cleave', 'type': 'physical', 'dmg': 100, 'succ': 0.55, 'mp_cost': 10}]"
6,6,416.0,10.0,1,"[{'name': 'Punch', 'type': 'physical', 'dmg': 50, 'succ': 0.9, 'mp_cost': 0}, {'name': 'Kick', 'type': 'physical', 'dmg': 60, 'succ': 0.8, 'mp_cost': 0}, {'name': 'Sword cleave', 'type': 'physical', 'dmg': 80, 'succ': 0.8, 'mp_cost': 0}, {'name': 'Magic sword cleave', 'type': 'physical', 'dmg': 100, 'succ': 0.55, 'mp_cost': 10}]"
7,7,416.0,28.0,1,"[{'name': 'Punch', 'type': 'physical', 'dmg': 50, 'succ': 0.9, 'mp_cost': 0}, {'name': 'Kick', 'type': 'physical', 'dmg': 60, 'succ': 0.8, 'mp_cost': 0}, {'name': 'Sword cleave', 'type': 'physical', 'dmg': 80, 'succ': 0.8, 'mp_cost': 0}, {'name': 'Magic sword cleave', 'type': 'physical', 'dmg': 100, 'succ': 0.55, 'mp_cost': 10}]"
8,8,416.0,46.0,1,"[{'name': 'Punch', 'type': 'physical', 'dmg': 50, 'succ': 0.9, 'mp_cost': 0}, {'name': 'Kick', 'type': 'physical', 'dmg': 60, 'succ': 0.8, 'mp_cost': 0}, {'name': 'Sword cleave', 'type': 'physical', 'dmg': 80, 'succ': 0.8, 'mp_cost': 0}, {'name': 'Magic sword cleave', 'type': 'physical', 'dmg': 100, 'succ': 0.55, 'mp_cost': 10}]"
9,9,416.0,64.0,1,"[{'name': 'Punch', 'type': 'physical', 'dmg': 50, 'succ': 0.9, 'mp_cost': 0}, {'name': 'Kick', 'type': 'physical', 'dmg': 60, 'succ': 0.8, 'mp_cost': 0}, {'name': 'Sword cleave', 'type': 'physical', 'dmg': 80, 'succ': 0.8, 'mp_cost': 0}, {'name': 'Magic sword cleave', 'type': 'physical', 'dmg': 100, 'succ': 0.55, 'mp_cost': 10}]"
10,10,416.0,82.0,1,"[{'name': 'Punch', 'type': 'physical', 'dmg': 50, 'succ': 0.9, 'mp_cost': 0}, {'name': 'Kick', 'type': 'physical', 'dmg': 60, 'succ': 0.8, 'mp_cost': 0}, {'name': 'Sword cleave', 'type': 'physical', 'dmg': 80, 'succ': 0.8, 'mp_cost': 0}, {'name': 'Magic sword cleave', 'type': 'physical', 'dmg': 100, 'succ': 0.55, 'mp_cost': 10}]"
11,11,416.0,100.0,1,"[{'name': 'Punch', 'type': 'physical', 'dmg': 50, 'succ': 0.9, 'mp_cost': 0}, {'name': 'Kick', 'type': 'physical', 'dmg': 60, 'succ': 0.8, 'mp_cost': 0}, {'name': 'Sword cleave', 'type': 'physical', 'dmg': 80, 'succ': 0.8, 'mp_cost': 0}, {'name': 'Magic sword cleave', 'type': 'physical', 'dmg': 100, 'succ': 0.55, 'mp_cost': 10}]"
12,12,812.0,10.0,1,"[{'name': 'Punch', 'type': 'physical', 'dmg': 50, 'succ': 0.9, 'mp_cost': 0}, {'name': 'Kick', 'type': 'physical', 'dmg': 60, 'succ': 0.8, 'mp_cost': 0}, {'name': 'Sword cleave', 'type': 'physical', 'dmg': 80, 'succ': 0.8, 'mp_cost': 0}, {'name': 'Magic sword cleave', 'type': 'physical', 'dmg': 100, 'succ': 0.55, 'mp_cost': 10}]"
13,13,812.0,28.0,1,"[{'name': 'Punch', 'type': 'physical', 'dmg': 50, 'succ': 0.9, 'mp_cost': 0}, {'name': 'Kick', 'type': 'physical', 'dmg': 60, 'succ': 0.8, 'mp_cost': 0}, {'name': 'Sword cleave', 'type': 'physical', 'dmg': 80, 'succ': 0.8, 'mp_cost': 0}, {'name': 'Magic sword cleave', 'type': 'physical', 'dmg': 100, 'succ': 0.55, 'mp_cost': 10}]"
14,14,812.0,46.0,1,"[{'name': 'Punch', 'type': 'physical', 'dmg': 50, 'succ': 0.9, 'mp_cost': 0}, {'name': 'Kick', 'type': 'physical', 'dmg': 60, 'succ': 0.8, 'mp_cost': 0}, {'name': 'Sword cleave', 'type': 'physical', 'dmg': 80, 'succ': 0.8, 'mp_cost': 0}, {'name': 'Magic sword cleave', 'type': 'physical', 'dmg': 100, 'succ': 0.55, 'mp_cost': 10}]"
15,15,812.0,64.0,1,"[{'name': 'Punch', 'type': 'physical', 'dmg': 50, 'succ': 0.9, 'mp_cost': 0}, {'name': 'Kick', 'type': 'physical', 'dmg': 60, 'succ': 0.8, 'mp_cost': 0}, {'name': 'Sword cleave', 'type': 'physical', 'dmg': 80, 'succ': 0.8, 'mp_cost': 0}, {'name': 'Magic sword cleave', 'type': 'physical', 'dmg': 100, 'succ': 0.55, 'mp_cost': 10}]"
16,16,812.0,82.0,1,"[{'name': 'Punch', 'type': 'physical', 'dmg': 50, 'succ': 0.9, 'mp_cost': 0}, {'name': 'Kick', 'type': 'physical', 'dmg': 60, 'succ': 0.8, 'mp_cost': 0}, {'name': 'Sword cleave', 'type': 'physical', 'dmg': 80, 'succ': 0.8, 'mp_cost': 0}, {'name': 'Magic sword cleave', 'type': 'physical', 'dmg': 100, 'succ': 0.55, 'mp_cost': 10}]"
17,17,812.0,100.0,1,"[{'name': 'Punch', 'type': 'physical', 'dmg': 50, 'succ': 0.9, 'mp_cost': 0}, {'name': 'Kick', 'type': 'physical', 'dmg': 60, 'succ': 0.8, 'mp_cost': 0}, {'name': 'Sword cleave', 'type': 'physical', 'dmg': 80, 'succ': 0.8, 'mp_cost': 0}, {'name': 'Magic sword cleave', 'type': 'physical', 'dmg': 100, 'succ': 0.55, 'mp_cost': 10}]"
18,18,1208.0,10.0,1,"[{'name': 'Punch', 'type': 'physical', 'dmg': 50, 'succ': 0.9, 'mp_cost': 0}, {'name': 'Kick', 'type': 'physical', 'dmg': 60, 'succ': 0.8, 'mp_cost': 0}, {'name': 'Sword cleave', 'type': 'physical', 'dmg': 80, 'succ': 0.8, 'mp_cost': 0}, {'name': 'Magic sword cleave', 'type': 'physical', 'dmg': 100, 'succ': 0.55, 'mp_cost': 10}]"
19,19,1208.0,28.0,1,"[{'name': 'Punch', 'type': 'physical', 'dmg': 50, 'succ': 0.9, 'mp_cost': 0}, {'name': 'Kick', 'type': 'physical', 'dmg': 60, 'succ': 0.8, 'mp_cost': 0}, {'name': 'Sword cleave', 'type': 'physical', 'dmg': 80, 'succ': 0.8, 'mp_cost': 0}, {'name': 'Magic sword cleave', 'type': 'physical', 'dmg': 100, 'succ': 0.55, 'mp_cost': 10}]"
20,20,1208.0,46.0,1,"[{'name': 'Punch', 'type': 'physical', 'dmg': 50, 'succ': 0.9, 'mp_cost': 0}, {'name': 'Kick', 'type': 'physical', 'dmg': 60, 'succ': 0.8, 'mp_cost': 0}, {'name': 'Sword cleave', 'type': 'physical', 'dmg': 80, 'succ': 0.8, 'mp_cost': 0}, {'name': 'Magic sword cleave', 'type': 'physical', 'dmg': 100, 'succ': 0.55, 'mp_cost': 10}]"
21,21,1208.0,64.0,1,"[{'name': 'Punch', 'type': 'physical', 'dmg': 50, 'succ': 0.9, 'mp_cost': 0}, {'name': 'Kick', 'type': 'physical', 'dmg': 60, 'succ': 0.8, 'mp_cost': 0}, {'name': 'Sword cleave', 'type': 'physical', 'dmg': 80, 'succ': 0.8, 'mp_cost': 0}, {'name': 'Magic sword cleave', 'type': 'physical', 'dmg': 100, 'succ': 0.55, 'mp_cost': 10}]"
22,22,1208.0,82.0,1,"[{'name': 'Punch', 'type': 'physical', 'dmg': 50, 'succ': 0.9, 'mp_cost': 0}, {'name': 'Kick', 'type': 'physical', 'dmg': 60, 'succ': 0.8, 'mp_cost': 0}, {'name': 'Sword cleave', 'type': 'physical', 'dmg': 80, 'succ': 0.8, 'mp_cost': 0}, {'name': 'Magic sword cleave', 'type': 'physical', 'dmg': 100, 'succ': 0.55, 'mp_cost': 10}]"
23,23,1208.0,100.0,1,"[{'name': 'Punch', 'type': 'physical', 'dmg': 50, 'succ': 0.9, 'mp_cost': 0}, {'name': 'Kick', 'type': 'physical', 'dmg': 60, 'succ': 0.8, 'mp_cost': 0}, {'name': 'Sword cleave', 'type': 'physical', 'dmg': 80, 'succ': 0.8, 'mp_cost': 0}, {'name': 'Magic sword cleave', 'type': 'physical', 'dmg': 100, 'succ': 0.55, 'mp_cost': 10}]"
24,24,1604.0,10.0,1,"[{'name': 'Punch', 'type': 'physical', 'dmg': 50, 'succ': 0.9, 'mp_cost': 0}, {'name': 'Kick', 'type': 'physical', 'dmg': 60, 'succ': 0.8, 'mp_cost': 0}, {'name': 'Sword cleave', 'type': 'physical', 'dmg': 80, 'succ': 0.8, 'mp_cost': 0}, {'name': 'Magic sword cleave', 'type': 'physical', 'dmg': 100, 'succ': 0.55, 'mp_cost': 10}]"
25,25,1604.0,28.0,1,"[{'name': 'Punch', 'type': 'physical', 'dmg': 50, 'succ': 0.9, 'mp_cost': 0}, {'name': 'Kick', 'type': 'physical', 'dmg': 60, 'succ': 0.8, 'mp_cost': 0}, {'name': 'Sword cleave', 'type': 'physical', 'dmg': 80, 'succ': 0.8, 'mp_cost': 0}, {'name': 'Magic sword cleave', 'type': 'physical', 'dmg': 100, 'succ': 0.55, 'mp_cost': 10}]"
26,26,1604.0,46.0,1,"[{'name': 'Punch', 'type': 'physical', 'dmg': 50, 'succ': 0.9, 'mp_cost': 0}, {'name': 'Kick', 'type': 'physical', 'dmg': 60, 'succ': 0.8, 'mp_cost': 0}, {'name': 'Sword cleave', 'type': 'physical', 'dmg': 80, 'succ': 0.8, 'mp_cost': 0}, {'name': 'Magic sword cleave', 'type': 'physical', 'dmg': 100, 'succ': 0.55, 'mp_cost': 10}]"
27,27,1604.0,64.0,1,"[{'name': 'Punch', 'type': 'physical', 'dmg': 50, 'succ': 0.9, 'mp_cost': 0}, {'name': 'Kick', 'type': 'physical', 'dmg': 60, 'succ': 0.8, 'mp_cost': 0}, {'name': 'Sword cleave', 'type': 'physical', 'dmg': 80, 'succ': 0.8, 'mp_cost': 0}, {'name': 'Magic sword cleave', 'type': 'physical', 'dmg': 100, 'succ': 0.55, 'mp_cost': 10}]"
28,28,1604.0,82.0,1,"[{'name': 'Punch', 'type': 'physical', 'dmg': 50, 'succ': 0.9, 'mp_cost': 0}, {'name': 'Kick', 'type': 'physical', 'dmg': 60, 'succ': 0.8, 'mp_cost': 0}, {'name': 'Sword cleave', 'type': 'physical', 'dmg': 80, 'succ': 0.8, 'mp_cost': 0}, {'name': 'Magic sword cleave', 'type': 'physical', 'dmg': 100, 'succ': 0.55, 'mp_cost': 10}]"
29,29,1604.0,100.0,1,"[{'name': 'Punch', 'type': 'physical', 'dmg': 50, 'succ': 0.9, 'mp_cost': 0}, {'name': 'Kick', 'type': 'physical', 'dmg': 60, 'succ': 0.8, 'mp_cost': 0}, {'name': 'Sword cleave', 'type': 'physical', 'dmg': 80, 'succ': 0.8, 'mp_cost': 0}, {'name': 'Magic sword cleave', 'type': 'physical', 'dmg': 100, 'succ': 0.55, 'mp_cost': 10}]"
30,30,2000.0,10.0,1,"[{'name': 'Punch', 'type': 'physical', 'dmg': 50, 'succ': 0.9, 'mp_cost': 0}, {'name': 'Kick', 'type': 'physical', 'dmg': 60, 'succ': 0.8, 'mp_cost': 0}, {'name': 'Sword cleave', 'type': 'physical', 'dmg': 80, 'succ': 0.8, 'mp_cost': 0}, {'name': 'Magic sword cleave', 'type': 'physical', 'dmg': 100, 'succ': 0.55, 'mp_cost': 10}]"
31,31,2000.0,28.0,1,"[{'name': 'Punch', 'type': 'physical', 'dmg': 50, 'succ': 0.9, 'mp_cost': 0}, {'name': 'Kick', 'type': 'physical', 'dmg': 60, 'succ': 0.8, 'mp_cost': 0}, {'name': 'Sword cleave', 'type': 'physical', 'dmg': 80, 'succ': 0.8, 'mp_cost': 0}, {'name': 'Magic sword cleave', 'type': 'physical', 'dmg': 100, 'succ': 0.55, 'mp_cost': 10}]"
32,32,2000.0,46.0,1,"[{'name': 'Punch', 'type': 'physical', 'dmg': 50, 'succ': 0.9, 'mp_cost': 0}, {'name': 'Kick', 'type': 'physical', 'dmg': 60, 'succ': 0.8, 'mp_cost': 0}, {'name': 'Sword cleave', 'type': 'physical', 'dmg': 80, 'succ': 0.8, 'mp_cost': 0}, {'name': 'Magic sword cleave', 'type': 'physical', 'dmg': 100, 'succ': 0.55, 'mp_cost': 10}]"
33,33,2000.0,64.0,1,"[{'name': 'Punch', 'type': 'physical', 'dmg': 50, 'succ': 0.9, 'mp_cost': 0}, {'name': 'Kick', 'type': 'physical', 'dmg': 60, 'succ': 0.8, 'mp_cost': 0}, {'name': 'Sword cleave', 'type': 'physical', 'dmg': 80, 'succ': 0.8, 'mp_cost': 0}, {'name': 'Magic sword cleave', 'type': 'physical', 'dmg': 100, 'succ': 0.55, 'mp_cost': 10}]"
34,34,2000.0,82.0,1,"[{'name': 'Punch', 'type': 'physical', 'dmg': 50, 'succ': 0.9, 'mp_cost': 0}, {'name': 'Kick', 'type': 'physical', 'dmg': 60, 'succ': 0.8, 'mp_cost': 0}, {'name': 'Sword cleave', 'type': 'physical', 'dmg': 80, 'succ': 0.8, 'mp_cost': 0}, {'name': 'Magic sword cleave', 'type': 'physical', 'dmg': 100, 'succ': 0.55, 'mp_cost': 10}]"
35,35,2000.0,100.0,1,"[{'name': 'Punch', 'type': 'physical', 'dmg': 50, 'succ': 0.9, 'mp_cost': 0}, {'name': 'Kick', 'type': 'physical', 'dmg': 60, 'succ': 0.8, 'mp_cost': 0}, {'name': 'Sword cleave', 'type': 'physical', 'dmg': 80, 'succ': 0.8, 'mp_cost': 0}, {'name': 'Magic sword cleave', 'type': 'physical', 'dmg': 100, 'succ': 0.55, 'mp_cost': 10}]"
36,36,20.0,10.0,10,"[{'name': 'Punch', 'type': 'physical', 'dmg': 50, 'succ': 0.9, 'mp_cost': 0}, {'name': 'Kick', 'type': 'physical', 'dmg': 60, 'succ': 0.8, 'mp_cost': 0}, {'name': 'Sword cleave', 'type': 'physical', 'dmg': 80, 'succ': 0.8, 'mp_cost': 0}, {'name': 'Magic sword cleave', 'type': 'physical', 'dmg': 100, 'succ': 0.55, 'mp_cost': 10}]"
37,37,20.0,28.0,10,"[{'name': 'Punch', 'type': 'physical', 'dmg': 50, 'succ': 0.9, 'mp_cost': 0}, {'name': 'Kick', 'type': 'physical', 'dmg': 60, 'succ': 0.8, 'mp_cost': 0}, {'name': 'Sword cleave', 'type': 'physical', 'dmg': 80, 'succ': 0.8, 'mp_cost': 0}, {'name': 'Magic sword cleave', 'type': 'physical', 'dmg': 100, 'succ': 0.55, 'mp_cost': 10}]"
38,38,20.0,46.0,10,"[{'name': 'Punch', 'type': 'physical', 'dmg': 50, 'succ': 0.9, 'mp_cost': 0}, {'name': 'Kick', 'type': 'physical', 'dmg': 60, 'succ': 0.8, 'mp_cost': 0}, {'name': 'Sword cleave', 'type': 'physical', 'dmg': 80, 'succ': 0.8, 'mp_cost': 0}, {'name': 'Magic sword cleave', 'type': 'physical', 'dmg': 100, 'succ': 0.55, 'mp_cost': 10}]"
39,39,20.0,64.0,10,"[{'name': 'Punch', 'type': 'physical', 'dmg': 50, 'succ': 0.9, 'mp_cost': 0}, {'name': 'Kick', 'type': 'physical', 'dmg': 60, 'succ': 0.8, 'mp_cost': 0}, {'name': 'Sword cleave', 'type': 'physical', 'dmg': 80, 'succ': 0.8, 'mp_cost': 0}, {'name': 'Magic sword cleave', 'type': 'physical', 'dmg': 100, 'succ': 0.55, 'mp_cost': 10}]"
40,40,20.0,82.0,10,"[{'name': 'Punch', 'type': 'physical', 'dmg': 50, 'succ': 0.9, 'mp_cost': 0}, {'name': 'Kick', 'type': 'physical', 'dmg': 60, 'succ': 0.8, 'mp_cost': 0}, {'name': 'Sword cleave', 'type': 'physical', 'dmg': 80, 'succ': 0.8, 'mp_cost': 0}, {'name': 'Magic sword cleave', 'type': 'physical', 'dmg': 100, 'succ': 0.55, 'mp_cost': 10}]"
41,41,20.0,100.0,10,"[{'name': 'Punch', 'type': 'physical', 'dmg': 50, 'succ': 0.9, 'mp_cost': 0}, {'name': 'Kick', 'type': 'physical', 'dmg': 60, 'succ': 0.8, 'mp_cost': 0}, {'name': 'Sword cleave', 'type': 'physical', 'dmg': 80, 'succ': 0.8, 'mp_cost': 0}, {'name': 'Magic sword cleave', 'type': 'physical', 'dmg': 100, 'succ': 0.55, 'mp_cost': 10}]"
42,216,20.0,10.0,1,"[{'name': 'Punch', 'type': 'physical', 'dmg': 50, 'succ': 0.9, 'mp_cost': 0}, {'name': 'Kick', 'type': 'physical', 'dmg': 60, 'succ': 0.8, 'mp_cost': 0}, {'name': 'Fire', 'type': 'spell', 'dmg': 75, 'succ': 0.8, 'mp_cost': 10}, {'name': 'Thunder', 'type': 'spell', 'dmg': 110, 'succ': 0.5, 'mp_cost': 20}, {'name': 'Blizzard', 'type': 'spell', 'dmg': 85, 'succ': 0.65, 'mp_cost': 10}]"
43,217,20.0,28.0,1,"[{'name': 'Punch', 'type': 'physical', 'dmg': 50, 'succ': 0.9, 'mp_cost': 0}, {'name': 'Kick', 'type': 'physical', 'dmg': 60, 'succ': 0.8, 'mp_cost': 0}, {'name': 'Fire', 'type': 'spell', 'dmg': 75, 'succ': 0.8, 'mp_cost': 10}, {'name': 'Thunder', 'type': 'spell', 'dmg': 110, 'succ': 0.5, 'mp_cost': 20}, {'name': 'Blizzard', 'type': 'spell', 'dmg': 85, 'succ': 0.65, 'mp_cost': 10}]"
44,218,20.0,46.0,1,"[{'name': 'Punch', 'type': 'physical', 'dmg': 50, 'succ': 0.9, 'mp_cost': 0}, {'name': 'Kick', 'type': 'physical', 'dmg': 60, 'succ': 0.8, 'mp_cost': 0}, {'name': 'Fire', 'type': 'spell', 'dmg': 75, 'succ': 0.8, 'mp_cost': 10}, {'name': 'Thunder', 'type': 'spell', 'dmg': 110, 'succ': 0.5, 'mp_cost': 20}, {'name': 'Blizzard', 'type': 'spell', 'dmg': 85, 'succ': 0.65, 'mp_cost': 10}]"
45,219,20.0,64.0,1,"[{'name': 'Punch', 'type': 'physical', 'dmg': 50, 'succ': 0.9, 'mp_cost': 0}, {'name': 'Kick', 'type': 'physical', 'dmg': 60, 'succ': 0.8, 'mp_cost': 0}, {'name': 'Fire', 'type': 'spell', 'dmg': 75, 'succ': 0.8, 'mp_cost': 10}, {'name': 'Thunder', 'type': 'spell', 'dmg': 110, 'succ': 0.5, 'mp_cost': 20}, {'name': 'Blizzard', 'type': 'spell', 'dmg': 85, 'succ': 0.65, 'mp_cost': 10}]"
46,220,20.0,82.0,1,"[{'name': 'Punch', 'type': 'physical', 'dmg': 50, 'succ': 0.9, 'mp_cost': 0}, {'name': 'Kick', 'type': 'physical', 'dmg': 60, 'succ': 0.8, 'mp_cost': 0}, {'name': 'Fire', 'type': 'spell', 'dmg': 75, 'succ': 0.8, 'mp_cost': 10}, {'name': 'Thunder', 'type': 'spell', 'dmg': 110, 'succ': 0.5, 'mp_cost': 20}, {'name': 'Blizzard', 'type': 'spell', 'dmg': 85, 'succ': 0.65, 'mp_cost': 10}]"
47,221,20.0,100.0,1,"[{'name': 'Punch', 'type': 'physical', 'dmg': 50, 'succ': 0.9, 'mp_cost': 0}, {'name': 'Kick', 'type': 'physical', 'dmg': 60, 'succ': 0.8, 'mp_cost': 0}, {'name': 'Fire', 'type': 'spell', 'dmg': 75, 'succ': 0.8, 'mp_cost': 10}, {'name': 'Thunder', 'type': 'spell', 'dmg': 110, 'succ': 0.5, 'mp_cost': 20}, {'name': 'Blizzard', 'type': 'spell', 'dmg': 85, 'succ': 0.65, 'mp_cost': 10}]"
48,222,416.0,10.0,1,"[{'name': 'Punch', 'type': 'physical', 'dmg': 50, 'succ': 0.9, 'mp_cost': 0}, {'name': 'Kick', 'type': 'physical', 'dmg': 60, 'succ': 0.8, 'mp_cost': 0}, {'name': 'Fire', 'type': 'spell', 'dmg': 75, 'succ': 0.8, 'mp_cost': 10}, {'name': 'Thunder', 'type': 'spell', 'dmg': 110, 'succ': 0.5, 'mp_cost': 20}, {'name': 'Blizzard', 'type': 'spell', 'dmg': 85, 'succ': 0.65, 'mp_cost': 10}]"
49,223,416.0,28.0,1,"[{'name': 'Punch', 'type': 'physical', 'dmg': 50, 'succ': 0.9, 'mp_cost': 0}, {'name': 'Kick', 'type': 'physical', 'dmg': 60, 'succ': 0.8, 'mp_cost': 0}, {'name': 'Fire', 'type': 'spell', 'dmg': 75, 'succ': 0.8, 'mp_cost': 10}, {'name': 'Thunder', 'type': 'spell', 'dmg': 110, 'succ': 0.5, 'mp_cost': 20}, {'name': 'Blizzard', 'type': 'spell', 'dmg': 85, 'succ': 0.65, 'mp_cost': 10}]"
50,224,416.0,46.0,1,"[{'name': 'Punch', 'type': 'physical', 'dmg': 50, 'succ': 0.9, 'mp_cost': 0}, {'name': 'Kick', 'type': 'physical', 'dmg': 60, 'succ': 0.8, 'mp_cost': 0}, {'name': 'Fire', 'type': 'spell', 'dmg': 75, 'succ': 0.8, 'mp_cost': 10}, {'name': 'Thunder', 'type': 'spell', 'dmg': 110, 'succ': 0.5, 'mp_cost': 20}, {'name': 'Blizzard', 'type': 'spell', 'dmg': 85, 'succ': 0.65, 'mp_cost': 10}]"
51,225,416.0,64.0,1,"[{'name': 'Punch', 'type': 'physical', 'dmg': 50, 'succ': 0.9, 'mp_cost': 0}, {'name': 'Kick', 'type': 'physical', 'dmg': 60, 'succ': 0.8, 'mp_cost': 0}, {'name': 'Fire', 'type': 'spell', 'dmg': 75, 'succ': 0.8, 'mp_cost': 10}, {'name': 'Thunder', 'type': 'spell', 'dmg': 110, 'succ': 0.5, 'mp_cost': 20}, {'name': 'Blizzard', 'type': 'spell', 'dmg': 85, 'succ': 0.65, 'mp_cost': 10}]"
52,226,416.0,82.0,1,"[{'name': 'Punch', 'type': 'physical', 'dmg': 50, 'succ': 0.9, 'mp_cost': 0}, {'name': 'Kick', 'type': 'physical', 'dmg': 60, 'succ': 0.8, 'mp_cost': 0}, {'name': 'Fire', 'type': 'spell', 'dmg': 75, 'succ': 0.8, 'mp_cost': 10}, {'name': 'Thunder', 'type': 'spell', 'dmg': 110, 'succ': 0.5, 'mp_cost': 20}, {'name': 'Blizzard', 'type': 'spell', 'dmg': 85, 'succ': 0.65, 'mp_cost': 10}]"
53,227,416.0,100.0,1,"[{'name': 'Punch', 'type': 'physical', 'dmg': 50, 'succ': 0.9, 'mp_cost': 0}, {'name': 'Kick', 'type': 'physical', 'dmg': 60, 'succ': 0.8, 'mp_cost': 0}, {'name': 'Fire', 'type': 'spell', 'dmg': 75, 'succ': 0.8, 'mp_cost': 10}, {'name': 'Thunder', 'type': 'spell', 'dmg': 110, 'succ': 0.5, 'mp_cost': 20}, {'name': 'Blizzard', 'type': 'spell', 'dmg': 85, 'succ': 0.65, 'mp_cost': 10}]"
54,228,812.0,10.0,1,"[{'name': 'Punch', 'type': 'physical', 'dmg': 50, 'succ': 0.9, 'mp_cost': 0}, {'name': 'Kick', 'type': 'physical', 'dmg': 60, 'succ': 0.8, 'mp_cost': 0}, {'name': 'Fire', 'type': 'spell', 'dmg': 75, 'succ': 0.8, 'mp_cost': 10}, {'name': 'Thunder', 'type': 'spell', 'dmg': 110, 'succ': 0.5, 'mp_cost': 20}, {'name': 'Blizzard', 'type': 'spell', 'dmg': 85, 'succ': 0.65, 'mp_cost': 10}]"
55,229,812.0,28.0,1,"[{'name': 'Punch', 'type': 'physical', 'dmg': 50, 'succ': 0.9, 'mp_cost': 0}, {'name': 'Kick', 'type': 'physical', 'dmg': 60, 'succ': 0.8, 'mp_cost': 0}, {'name': 'Fire', 'type': 'spell', 'dmg': 75, 'succ': 0.8, 'mp_cost': 10}, {'name': 'Thunder', 'type': 'spell', 'dmg': 110, 'succ': 0.5, 'mp_cost': 20}, {'name': 'Blizzard', 'type': 'spell', 'dmg': 85, 'succ': 0.65, 'mp_cost': 10}]"
56,230,812.0,46.0,1,"[{'name': 'Punch', 'type': 'physical', 'dmg': 50, 'succ': 0.9, 'mp_cost': 0}, {'name': 'Kick', 'type': 'physical', 'dmg': 60, 'succ': 0.8, 'mp_cost': 0}, {'name': 'Fire', 'type': 'spell', 'dmg': 75, 'succ': 0.8, 'mp_cost': 10}, {'name': 'Thunder', 'type': 'spell', 'dmg': 110, 'succ': 0.5, 'mp_cost': 20}, {'name': 'Blizzard', 'type': 'spell', 'dmg': 85, 'succ': 0.65, 'mp_cost': 10}]"
57,231,812.0,64.0,1,"[{'name': 'Punch', 'type': 'physical', 'dmg': 50, 'succ': 0.9, 'mp_cost': 0}, {'name': 'Kick', 'type': 'physical', 'dmg': 60, 'succ': 0.8, 'mp_cost': 0}, {'name': 'Fire', 'type': 'spell', 'dmg': 75, 'succ': 0.8, 'mp_cost': 10}, {'name': 'Thunder', 'type': 'spell', 'dmg': 110, 'succ': 0.5, 'mp_cost': 20}, {'name': 'Blizzard', 'type': 'spell', 'dmg': 85, 'succ': 0.65, 'mp_cost': 10}]"
58,232,812.0,82.0,1,"[{'name': 'Punch', 'type': 'physical', 'dmg': 50, 'succ': 0.9, 'mp_cost': 0}, {'name': 'Kick', 'type': 'physical', 'dmg': 60, 'succ': 0.8, 'mp_cost': 0}, {'name': 'Fire', 'type': 'spell', 'dmg': 75, 'succ': 0.8, 'mp_cost': 10}, {'name': 'Thunder', 'type': 'spell', 'dmg': 110, 'succ': 0.5, 'mp_cost': 20}, {'name': 'Blizzard', 'type': 'spell', 'dmg': 85, 'succ': 0.65, 'mp_cost': 10}]"
59,233,812.0,100.0,1,"[{'name': 'Punch', 'type': 'physical', 'dmg': 50, 'succ': 0.9, 'mp_cost': 0}, {'name': 'Kick', 'type': 'physical', 'dmg': 60, 'succ': 0.8, 'mp_cost': 0}, {'name': 'Fire', 'type': 'spell', 'dmg': 75, 'succ': 0.8, 'mp_cost': 10}, {'name': 'Thunder', 'type': 'spell', 'dmg': 110, 'succ': 0.5, 'mp_cost': 20}, {'name': 'Blizzard', 'type': 'spell', 'dmg': 85, 'succ': 0.65, 'mp_cost': 10}]"
60,234,1208.0,10.0,1,"[{'name': 'Punch', 'type': 'physical', 'dmg': 50, 'succ': 0.9, 'mp_cost': 0}, {'name': 'Kick', 'type': 'physical', 'dmg': 60, 'succ': 0.8, 'mp_cost': 0}, {'name': 'Fire', 'type': 'spell', 'dmg': 75, 'succ': 0.8, 'mp_cost': 10}, {'name': 'Thunder', 'type': 'spell', 'dmg': 110, 'succ': 0.5, 'mp_cost': 20}, {'name': 'Blizzard', 'type': 'spell', 'dmg': 85, 'succ': 0.65, 'mp_cost': 10}]"
61,235,1208.0,28.0,1,"[{'name': 'Punch', 'type': 'physical', 'dmg': 50, 'succ': 0.9, 'mp_cost': 0}, {'name': 'Kick', 'type': 'physical', 'dmg': 60, 'succ': 0.8, 'mp_cost': 0}, {'name': 'Fire', 'type': 'spell', 'dmg': 75, 'succ': 0.8, 'mp_cost': 10}, {'name': 'Thunder', 'type': 'spell', 'dmg': 110, 'succ': 0.5, 'mp_cost': 20}, {'name': 'Blizzard', 'type': 'spell', 'dmg': 85, 'succ': 0.65, 'mp_cost': 10}]"
62,236,1208.0,46.0,1,"[{'name': 'Punch', 'type': 'physical', 'dmg': 50, 'succ': 0.9, 'mp_cost': 0}, {'name': 'Kick', 'type': 'physical', 'dmg': 60, 'succ': 0.8, 'mp_cost': 0}, {'name': 'Fire', 'type': 'spell', 'dmg': 75, 'succ': 0.8, 'mp_cost': 10}, {'name': 'Thunder', 'type': 'spell', 'dmg': 110, 'succ': 0.5, 'mp_cost': 20}, {'name': 'Blizzard', 'type': 'spell', 'dmg': 85, 'succ': 0.65, 'mp_cost': 10}]"
63,237,1208.0,64.0,1,"[{'name': 'Punch', 'type': 'physical', 'dmg': 50, 'succ': 0.9, 'mp_cost': 0}, {'name': 'Kick', 'type': 'physical', 'dmg': 60, 'succ': 0.8, 'mp_cost': 0}, {'name': 'Fire', 'type': 'spell', 'dmg': 75, 'succ': 0.8, 'mp_cost': 10}, {'name': 'Thunder', 'type': 'spell', 'dmg': 110, 'succ': 0.5, 'mp_cost': 20}, {'name': 'Blizzard', 'type': 'spell', 'dmg': 85, 'succ': 0.65, 'mp_cost': 10}]"
64,238,1208.0,82.0,1,"[{'name': 'Punch', 'type': 'physical', 'dmg': 50, 'succ': 0.9, 'mp_cost': 0}, {'name': 'Kick', 'type': 'physical', 'dmg': 60, 'succ': 0.8, 'mp_cost': 0}, {'name': 'Fire', 'type': 'spell', 'dmg': 75, 'succ': 0.8, 'mp_cost': 10}, {'name': 'Thunder', 'type': 'spell', 'dmg': 110, 'succ': 0.5, 'mp_cost': 20}, {'name': 'Blizzard', 'type': 'spell', 'dmg': 85, 'succ': 0.65, 'mp_cost': 10}]"
65,239,1208.0,100.0,1,"[{'name': 'Punch', 'type': 'physical', 'dmg': 50, 'succ': 0.9, 'mp_cost': 0}, {'name': 'Kick', 'type': 'physical', 'dmg': 60, 'succ': 0.8, 'mp_cost': 0}, {'name': 'Fire', 'type': 'spell', 'dmg': 75, 'succ': 0.8, 'mp_cost': 10}, {'name': 'Thunder', 'type': 'spell', 'dmg': 110, 'succ': 0.5, 'mp_cost': 20}, {'name': 'Blizzard', 'type': 'spell', 'dmg': 85, 'succ': 0.65, 'mp_cost': 10}]"
66,240,1604.0,10.0,1,"[{'name': 'Punch', 'type': 'physical', 'dmg': 50, 'succ': 0.9, 'mp_cost': 0}, {'name': 'Kick', 'type': 'physical', 'dmg': 60, 'succ': 0.8, 'mp_cost': 0}, {'name': 'Fire', 'type': 'spell', 'dmg': 75, 'succ': 0.8, 'mp_cost': 10}, {'name': 'Thunder', 'type': 'spell', 'dmg': 110, 'succ': 0.5, 'mp_cost': 20}, {'name': 'Blizzard', 'type': 'spell', 'dmg': 85, 'succ': 0.65, 'mp_cost': 10}]"
67,241,1604.0,28.0,1,"[{'name': 'Punch', 'type': 'physical', 'dmg': 50, 'succ': 0.9, 'mp_cost': 0}, {'name': 'Kick', 'type': 'physical', 'dmg': 60, 'succ': 0.8, 'mp_cost': 0}, {'name': 'Fire', 'type': 'spell', 'dmg': 75, 'succ': 0.8, 'mp_cost': 10}, {'name': 'Thunder', 'type': 'spell', 'dmg': 110, 'succ': 0.5, 'mp_cost': 20}, {'name': 'Blizzard', 'type': 'spell', 'dmg': 85, 'succ': 0.65, 'mp_cost': 10}]"
68,242,1604.0,46.0,1,"[{'name': 'Punch', 'type': 'physical', 'dmg': 50, 'succ': 0.9, 'mp_cost': 0}, {'name': 'Kick', 'type': 'physical', 'dmg': 60, 'succ': 0.8, 'mp_cost': 0}, {'name': 'Fire', 'type': 'spell', 'dmg': 75, 'succ': 0.8, 'mp_cost': 10}, {'name': 'Thunder', 'type': 'spell', 'dmg': 110, 'succ': 0.5, 'mp_cost': 20}, {'name': 'Blizzard', 'type': 'spell', 'dmg': 85, 'succ': 0.65, 'mp_cost': 10}]"
69,243,1604.0,64.0,1,"[{'name': 'Punch', 'type': 'physical', 'dmg': 50, 'succ': 0.9, 'mp_cost': 0}, {'name': 'Kick', 'type': 'physical', 'dmg': 60, 'succ': 0.8, 'mp_cost': 0}, {'name': 'Fire', 'type': 'spell', 'dmg': 75, 'succ': 0.8, 'mp_cost': 10}, {'name': 'Thunder', 'type': 'spell', 'dmg': 110, 'succ': 0.5, 'mp_cost': 20}, {'name': 'Blizzard', 'type': 'spell', 'dmg': 85, 'succ': 0.65, 'mp_cost': 10}]"
70,244,1604.0,82.0,1,"[{'name': 'Punch', 'type': 'physical', 'dmg': 50, 'succ': 0.9, 'mp_cost': 0}, {'name': 'Kick', 'type': 'physical', 'dmg': 60, 'succ': 0.8, 'mp_cost': 0}, {'name': 'Fire', 'type': 'spell', 'dmg': 75, 'succ': 0.8, 'mp_cost': 10}, {'name': 'Thunder', 'type': 'spell', 'dmg': 110, 'succ': 0.5, 'mp_cost': 20}, {'name': 'Blizzard', 'type': 'spell', 'dmg': 85, 'succ': 0.65, 'mp_cost': 10}]"
71,245,1604.0,100.0,1,"[{'name': 'Punch', 'type': 'physical', 'dmg': 50, 'succ': 0.9, 'mp_cost': 0}, {'name': 'Kick', 'type': 'physical', 'dmg': 60, 'succ': 0.8, 'mp_cost': 0}, {'name': 'Fire', 'type': 'spell', 'dmg': 75, 'succ': 0.8, 'mp_cost': 10}, {'name': 'Thunder', 'type': 'spell', 'dmg': 110, 'succ': 0.5, 'mp_cost': 20}, {'name': 'Blizzard', 'type': 'spell', 'dmg': 85, 'succ': 0.65, 'mp_cost': 10}]"
72,246,2000.0,10.0,1,"[{'name': 'Punch', 'type': 'physical', 'dmg': 50, 'succ': 0.9, 'mp_cost': 0}, {'name': 'Kick', 'type': 'physical', 'dmg': 60, 'succ': 0.8, 'mp_cost': 0}, {'name': 'Fire', 'type': 'spell', 'dmg': 75, 'succ': 0.8, 'mp_cost': 10}, {'name': 'Thunder', 'type': 'spell', 'dmg': 110, 'succ': 0.5, 'mp_cost': 20}, {'name': 'Blizzard', 'type': 'spell', 'dmg': 85, 'succ': 0.65, 'mp_cost': 10}]"
73,247,2000.0,28.0,1,"[{'name': 'Punch', 'type': 'physical', 'dmg': 50, 'succ': 0.9, 'mp_cost': 0}, {'name': 'Kick', 'type': 'physical', 'dmg': 60, 'succ': 0.8, 'mp_cost': 0}, {'name': 'Fire', 'type': 'spell', 'dmg': 75, 'succ': 0.8, 'mp_cost': 10}, {'name': 'Thunder', 'type': 'spell', 'dmg': 110, 'succ': 0.5, 'mp_cost': 20}, {'name': 'Blizzard', 'type': 'spell', 'dmg': 85, 'succ': 0.65, 'mp_cost': 10}]"
74,248,2000.0,46.0,1,"[{'name': 'Punch', 'type': 'physical', 'dmg': 50, 'succ': 0.9, 'mp_cost': 0}, {'name': 'Kick', 'type': 'physical', 'dmg': 60, 'succ': 0.8, 'mp_cost': 0}, {'name': 'Fire', 'type': 'spell', 'dmg': 75, 'succ': 0.8, 'mp_cost': 10}, {'name': 'Thunder', 'type': 'spell', 'dmg': 110, 'succ': 0.5, 'mp_cost': 20}, {'name': 'Blizzard', 'type': 'spell', 'dmg': 85, 'succ': 0.65, 'mp_cost': 10}]"
75,249,2000.0,64.0,1,"[{'name': 'Punch', 'type': 'physical', 'dmg': 50, 'succ': 0.9, 'mp_cost': 0}, {'name': 'Kick', 'type': 'physical', 'dmg': 60, 'succ': 0.8, 'mp_cost': 0}, {'name': 'Fire', 'type': 'spell', 'dmg': 75, 'succ': 0.8, 'mp_cost': 10}, {'name': 'Thunder', 'type': 'spell', 'dmg': 110, 'succ': 0.5, 'mp_cost': 20}, {'name': 'Blizzard', 'type': 'spell', 'dmg': 85, 'succ': 0.65, 'mp_cost': 10}]"
76,250,2000.0,82.0,1,"[{'name': 'Punch', 'type': 'physical', 'dmg': 50, 'succ': 0.9, 'mp_cost': 0}, {'name': 'Kick', 'type': 'physical', 'dmg': 60, 'succ': 0.8, 'mp_cost': 0}, {'name': 'Fire', 'type': 'spell', 'dmg': 75, 'succ': 0.8, 'mp_cost': 10}, {'name': 'Thunder', 'type': 'spell', 'dmg': 110, 'succ': 0.5, 'mp_cost': 20}, {'name': 'Blizzard', 'type': 'spell', 'dmg': 85, 'succ': 0.65, 'mp_cost': 10}]"
77,251,2000.0,100.0,1,"[{'name': 'Punch', 'type': 'physical', 'dmg': 50, 'succ': 0.9, 'mp_cost': 0}, {'name': 'Kick', 'type': 'physical', 'dmg': 60, 'succ': 0.8, 'mp_cost': 0}, {'name': 'Fire', 'type': 'spell', 'dmg': 75, 'succ': 0.8, 'mp_cost': 10}, {'name': 'Thunder', 'type': 'spell', 'dmg': 110, 'succ': 0.5, 'mp_cost': 20}, {'name': 'Blizzard', 'type': 'spell', 'dmg': 85, 'succ': 0.65, 'mp_cost': 10}]"
78,252,20.0,10.0,10,"[{'name': 'Punch', 'type': 'physical', 'dmg': 50, 'succ': 0.9, 'mp_cost': 0}, {'name': 'Kick', 'type': 'physical', 'dmg': 60, 'succ': 0.8, 'mp_cost': 0}, {'name': 'Fire', 'type': 'spell', 'dmg': 75, 'succ': 0.8, 'mp_cost': 10}, {'name': 'Thunder', 'type': 'spell', 'dmg': 110, 'succ': 0.5, 'mp_cost': 20}, {'name': 'Blizzard', 'type': 'spell', 'dmg': 85, 'succ': 0.65, 'mp_cost': 10}]"
79,253,20.0,28.0,10,"[{'name': 'Punch', 'type': 'physical', 'dmg': 50, 'succ': 0.9, 'mp_cost': 0}, {'name': 'Kick', 'type': 'physical', 'dmg': 60, 'succ': 0.8, 'mp_cost': 0}, {'name': 'Fire', 'type': 'spell', 'dmg': 75, 'succ': 0.8, 'mp_cost': 10}, {'name': 'Thunder', 'type': 'spell', 'dmg': 110, 'succ': 0.5, 'mp_cost': 20}, {'name': 'Blizzard', 'type': 'spell', 'dmg': 85, 'succ': 0.65, 'mp_cost': 10}]"
80,254,20.0,46.0,10,"[{'name': 'Punch', 'type': 'physical', 'dmg': 50, 'succ': 0.9, 'mp_cost': 0}, {'name': 'Kick', 'type': 'physical', 'dmg': 60, 'succ': 0.8, 'mp_cost': 0}, {'name': 'Fire', 'type': 'spell', 'dmg': 75, 'succ': 0.8, 'mp_cost': 10}, {'name': 'Thunder', 'type': 'spell', 'dmg': 110, 'succ': 0.5, 'mp_cost': 20}, {'name': 'Blizzard', 'type': 'spell', 'dmg': 85, 'succ': 0.65, 'mp_cost': 10}]"
81,255,20.0,64.0,10,"[{'name': 'Punch', 'type': 'physical', 'dmg': 50, 'succ': 0.9, 'mp_cost': 0}, {'name': 'Kick', 'type': 'physical', 'dmg': 60, 'succ': 0.8, 'mp_cost': 0}, {'name': 'Fire', 'type': 'spell', 'dmg': 75, 'succ': 0.8, 'mp_cost': 10}, {'name': 'Thunder', 'type': 'spell', 'dmg': 110, 'succ': 0.5, 'mp_cost': 20}, {'name': 'Blizzard', 'type': 'spell', 'dmg': 85, 'succ': 0.65, 'mp_cost': 10}]"
82,256,20.0,82.0,10,"[{'name': 'Punch', 'type': 'physical', 'dmg': 50, 'succ': 0.9, 'mp_cost': 0}, {'name': 'Kick', 'type': 'physical', 'dmg': 60, 'succ': 0.8, 'mp_cost': 0}, {'name': 'Fire', 'type': 'spell', 'dmg': 75, 'succ': 0.8, 'mp_cost': 10}, {'name': 'Thunder', 'type': 'spell', 'dmg': 110, 'succ': 0.5, 'mp_cost': 20}, {'name': 'Blizzard', 'type': 'spell', 'dmg': 85, 'succ': 0.65, 'mp_cost': 10}]"
83,257,20.0,100.0,10,"[{'name': 'Punch', 'type': 'physical', 'dmg': 50, 'succ': 0.9, 'mp_cost': 0}, {'name': 'Kick', 'type': 'physical', 'dmg': 60, 'succ': 0.8, 'mp_cost': 0}, {'name': 'Fire', 'type': 'spell', 'dmg': 75, 'succ': 0.8, 'mp_cost': 10}, {'name': 'Thunder', 'type': 'spell', 'dmg': 110, 'succ': 0.5, 'mp_cost': 20}, {'name': 'Blizzard', 'type': 'spell', 'dmg': 85, 'succ': 0.65, 'mp_cost': 10}]"
84,432,20.0,10.0,1,"[{'name': 'Punch', 'type': 'physical', 'dmg': 50, 'succ': 0.9, 'mp_cost': 0}, {'name': 'Kick', 'type': 'physical', 'dmg': 60, 'succ': 0.8, 'mp_cost': 0}, {'name': 'Shiv', 'type': 'physical', 'dmg': 80, 'succ': 0.8, 'mp_cost': 0}, {'name': 'Magic Shiv', 'type': 'spell', 'dmg': 100, 'succ': 0.75, 'mp_cost': 10}]"
85,433,20.0,28.0,1,"[{'name': 'Punch', 'type': 'physical', 'dmg': 50, 'succ': 0.9, 'mp_cost': 0}, {'name': 'Kick', 'type': 'physical', 'dmg': 60, 'succ': 0.8, 'mp_cost': 0}, {'name': 'Shiv', 'type': 'physical', 'dmg': 80, 'succ': 0.8, 'mp_cost': 0}, {'name': 'Magic Shiv', 'type': 'spell', 'dmg': 100, 'succ': 0.75, 'mp_cost': 10}]"
86,434,20.0,46.0,1,"[{'name': 'Punch', 'type': 'physical', 'dmg': 50, 'succ': 0.9, 'mp_cost': 0}, {'name': 'Kick', 'type': 'physical', 'dmg': 60, 'succ': 0.8, 'mp_cost': 0}, {'name': 'Shiv', 'type': 'physical', 'dmg': 80, 'succ': 0.8, 'mp_cost': 0}, {'name': 'Magic Shiv', 'type': 'spell', 'dmg': 100, 'succ': 0.75, 'mp_cost': 10}]"
87,435,20.0,64.0,1,"[{'name': 'Punch', 'type': 'physical', 'dmg': 50, 'succ': 0.9, 'mp_cost': 0}, {'name': 'Kick', 'type': 'physical', 'dmg': 60, 'succ': 0.8, 'mp_cost': 0}, {'name': 'Shiv', 'type': 'physical', 'dmg': 80, 'succ': 0.8, 'mp_cost': 0}, {'name': 'Magic Shiv', 'type': 'spell', 'dmg': 100, 'succ': 0.75, 'mp_cost': 10}]"
88,436,20.0,82.0,1,"[{'name': 'Punch', 'type': 'physical', 'dmg': 50, 'succ': 0.9, 'mp_cost': 0}, {'name': 'Kick', 'type': 'physical', 'dmg': 60, 'succ': 0.8, 'mp_cost': 0}, {'name': 'Shiv', 'type': 'physical', 'dmg': 80, 'succ': 0.8, 'mp_cost': 0}, {'name': 'Magic Shiv', 'type': 'spell', 'dmg': 100, 'succ': 0.75, 'mp_cost': 10}]"
89,437,20.0,100.0,1,"[{'name': 'Punch', 'type': 'physical', 'dmg': 50, 'succ': 0.9, 'mp_cost': 0}, {'name': 'Kick', 'type': 'physical', 'dmg': 60, 'succ': 0.8, 'mp_cost': 0}, {'name': 'Shiv', 'type': 'physical', 'dmg': 80, 'succ': 0.8, 'mp_cost': 0}, {'name': 'Magic Shiv', 'type': 'spell', 'dmg': 100, 'succ': 0.75, 'mp_cost': 10}]"
90,438,416.0,10.0,1,"[{'name': 'Punch', 'type': 'physical', 'dmg': 50, 'succ': 0.9, 'mp_cost': 0}, {'name': 'Kick', 'type': 'physical', 'dmg': 60, 'succ': 0.8, 'mp_cost': 0}, {'name': 'Shiv', 'type': 'physical', 'dmg': 80, 'succ': 0.8, 'mp_cost': 0}, {'name': 'Magic Shiv', 'type': 'spell', 'dmg': 100, 'succ': 0.75, 'mp_cost': 10}]"
91,439,416.0,28.0,1,"[{'name': 'Punch', 'type': 'physical', 'dmg': 50, 'succ': 0.9, 'mp_cost': 0}, {'name': 'Kick', 'type': 'physical', 'dmg': 60, 'succ': 0.8, 'mp_cost': 0}, {'name': 'Shiv', 'type': 'physical', 'dmg': 80, 'succ': 0.8, 'mp_cost': 0}, {'name': 'Magic Shiv', 'type': 'spell', 'dmg': 100, 'succ': 0.75, 'mp_cost': 10}]"
92,440,416.0,46.0,1,"[{'name': 'Punch', 'type': 'physical', 'dmg': 50, 'succ': 0.9, 'mp_cost': 0}, {'name': 'Kick', 'type': 'physical', 'dmg': 60, 'succ': 0.8, 'mp_cost': 0}, {'name': 'Shiv', 'type': 'physical', 'dmg': 80, 'succ': 0.8, 'mp_cost': 0}, {'name': 'Magic Shiv', 'type': 'spell', 'dmg': 100, 'succ': 0.75, 'mp_cost': 10}]"
93,441,416.0,64.0,1,"[{'name': 'Punch', 'type': 'physical', 'dmg': 50, 'succ': 0.9, 'mp_cost': 0}, {'name': 'Kick', 'type': 'physical', 'dmg': 60, 'succ': 0.8, 'mp_cost': 0}, {'name': 'Shiv', 'type': 'physical', 'dmg': 80, 'succ': 0.8, 'mp_cost': 0}, {'name': 'Magic Shiv', 'type': 'spell', 'dmg': 100, 'succ': 0.75, 'mp_cost': 10}]"
94,442,416.0,82.0,1,"[{'name': 'Punch', 'type': 'physical', 'dmg': 50, 'succ': 0.9, 'mp_cost': 0}, {'name': 'Kick', 'type': 'physical', 'dmg': 60, 'succ': 0.8, 'mp_cost': 0}, {'name': 'Shiv', 'type': 'physical', 'dmg': 80, 'succ': 0.8, 'mp_cost': 0}, {'name': 'Magic Shiv', 'type': 'spell', 'dmg': 100, 'succ': 0.75, 'mp_cost': 10}]"
95,443,416.0,100.0,1,"[{'name': 'Punch', 'type': 'physical', 'dmg': 50, 'succ': 0.9, 'mp_cost': 0}, {'name': 'Kick', 'type': 'physical', 'dmg': 60, 'succ': 0.8, 'mp_cost': 0}, {'name': 'Shiv', 'type': 'physical', 'dmg': 80, 'succ': 0.8, 'mp_cost': 0}, {'name': 'Magic Shiv', 'type': 'spell', 'dmg': 100, 'succ': 0.75, 'mp_cost': 10}]"
96,444,812.0,10.0,1,"[{'name': 'Punch', 'type': 'physical', 'dmg': 50, 'succ': 0.9, 'mp_cost': 0}, {'name': 'Kick', 'type': 'physical', 'dmg': 60, 'succ': 0.8, 'mp_cost': 0}, {'name': 'Shiv', 'type': 'physical', 'dmg': 80, 'succ': 0.8, 'mp_cost': 0}, {'name': 'Magic Shiv', 'type': 'spell', 'dmg': 100, 'succ': 0.75, 'mp_cost': 10}]"
97,445,812.0,28.0,1,"[{'name': 'Punch', 'type': 'physical', 'dmg': 50, 'succ': 0.9, 'mp_cost': 0}, {'name': 'Kick', 'type': 'physical', 'dmg': 60, 'succ': 0.8, 'mp_cost': 0}, {'name': 'Shiv', 'type': 'physical', 'dmg': 80, 'succ': 0.8, 'mp_cost': 0}, {'name': 'Magic Shiv', 'type': 'spell', 'dmg': 100, 'succ': 0.75, 'mp_cost': 10}]"
98,446,812.0,46.0,1,"[{'name': 'Punch', 'type': 'physical', 'dmg': 50, 'succ': 0.9, 'mp_cost': 0}, {'name': 'Kick', 'type': 'physical', 'dmg': 60, 'succ': 0.8, 'mp_cost': 0}, {'name': 'Shiv', 'type': 'physical', 'dmg': 80, 'succ': 0.8, 'mp_cost': 0}, {'name': 'Magic Shiv', 'type': 'spell', 'dmg': 100, 'succ': 0.75, 'mp_cost': 10}]"
99,447,812.0,64.0,1,"[{'name': 'Punch', 'type': 'physical', 'dmg': 50, 'succ': 0.9, 'mp_cost': 0}, {'name': 'Kick', 'type': 'physical', 'dmg': 60, 'succ': 0.8, 'mp_cost': 0}, {'name': 'Shiv', 'type': 'physical', 'dmg': 80, 'succ': 0.8, 'mp_cost': 0}, {'name': 'Magic Shiv', 'type': 'spell', 'dmg': 100, 'succ': 0.75, 'mp_cost': 10}]"
100,448,812.0,82.0,1,"[{'name': 'Punch', 'type': 'physical', 'dmg': 50, 'succ': 0.9, 'mp_cost': 0}, {'name': 'Kick', 'type': 'physical', 'dmg': 60, 'succ': 0.8, 'mp_cost': 0}, {'name': 'Shiv', 'type': 'physical', 'dmg': 80, 'succ': 0.8, 'mp_cost': 0}, {'name': 'Magic Shiv', 'type': 'spell', 'dmg': 100, 'succ': 0.75, 'mp_cost': 10}]"
101,449,812.0,100.0,1,"[{'name': 'Punch', 'type': 'physical', 'dmg': 50, 'succ': 0.9, 'mp_cost': 0}, {'name': 'Kick', 'type': 'physical', 'dmg': 60, 'succ': 0.8, 'mp_cost': 0}, {'name': 'Shiv', 'type': 'physical', 'dmg': 80, 'succ': 0.8, 'mp_cost': 0}, {'name': 'Magic Shiv', 'type': 'spell', 'dmg': 100, 'succ': 0.75, 'mp_cost': 10}]"
102,450,1208.0,10.0,1,"[{'name': 'Punch', 'type': 'physical', 'dmg': 50, 'succ': 0.9, 'mp_cost': 0}, {'name': 'Kick', 'type': 'physical', 'dmg': 60, 'succ': 0.8, 'mp_cost': 0}, {'name': 'Shiv', 'type': 'physical', 'dmg': 80, 'succ': 0.8, 'mp_cost': 0}, {'name': 'Magic Shiv', 'type': 'spell', 'dmg': 100, 'succ': 0.75, 'mp_cost': 10}]"
103,451,1208.0,28.0,1,"[{'name': 'Punch', 'type': 'physical', 'dmg': 50, 'succ': 0.9, 'mp_cost': 0}, {'name': 'Kick', 'type': 'physical', 'dmg': 60, 'succ': 0.8, 'mp_cost': 0}, {'name': 'Shiv', 'type': 'physical', 'dmg': 80, 'succ': 0.8, 'mp_cost': 0}, {'name': 'Magic Shiv', 'type': 'spell', 'dmg': 100, 'succ': 0.75, 'mp_cost': 10}]"
104,452,1208.0,46.0,1,"[{'name': 'Punch', 'type': 'physical', 'dmg': 50, 'succ': 0.9, 'mp_cost': 0}, {'name': 'Kick', 'type': 'physical', 'dmg': 60, 'succ': 0.8, 'mp_cost': 0}, {'name': 'Shiv', 'type': 'physical', 'dmg': 80, 'succ': 0.8, 'mp_cost': 0}, {'name': 'Magic Shiv', 'type': 'spell', 'dmg': 100, 'succ': 0.75, 'mp_cost': 10}]"
105,453,1208.0,64.0,1,"[{'name': 'Punch', 'type': 'physical', 'dmg': 50, 'succ': 0.9, 'mp_cost': 0}, {'name': 'Kick', 'type': 'physical', 'dmg': 60, 'succ': 0.8, 'mp_cost': 0}, {'name': 'Shiv', 'type': 'physical', 'dmg': 80, 'succ': 0.8, 'mp_cost': 0}, {'name': 'Magic Shiv', 'type': 'spell', 'dmg': 100, 'succ': 0.75, 'mp_cost': 10}]"
106,454,1208.0,82.0,1,"[{'name': 'Punch', 'type': 'physical', 'dmg': 50, 'succ': 0.9, 'mp_cost': 0}, {'name': 'Kick', 'type': 'physical', 'dmg': 60, 'succ': 0.8, 'mp_cost': 0}, {'name': 'Shiv', 'type': 'physical', 'dmg': 80, 'succ': 0.8, 'mp_cost': 0}, {'name': 'Magic Shiv', 'type': 'spell', 'dmg': 100, 'succ': 0.75, 'mp_cost': 10}]"
107,455,1208.0,100.0,1,"[{'name': 'Punch', 'type': 'physical', 'dmg': 50, 'succ': 0.9, 'mp_cost': 0}, {'name': 'Kick', 'type': 'physical', 'dmg': 60, 'succ': 0.8, 'mp_cost': 0}, {'name': 'Shiv', 'type': 'physical', 'dmg': 80, 'succ': 0.8, 'mp_cost': 0}, {'name': 'Magic Shiv', 'type': 'spell', 'dmg': 100, 'succ': 0.75, 'mp_cost': 10}]"
108,456,1604.0,10.0,1,"[{'name': 'Punch', 'type': 'physical', 'dmg': 50, 'succ': 0.9, 'mp_cost': 0}, {'name': 'Kick', 'type': 'physical', 'dmg': 60, 'succ': 0.8, 'mp_cost': 0}, {'name': 'Shiv', 'type': 'physical', 'dmg': 80, 'succ': 0.8, 'mp_cost': 0}, {'name': 'Magic Shiv', 'type': 'spell', 'dmg': 100, 'succ': 0.75, 'mp_cost': 10}]"
109,457,1604.0,28.0,1,"[{'name': 'Punch', 'type': 'physical', 'dmg': 50, 'succ': 0.9, 'mp_cost': 0}, {'name': 'Kick', 'type': 'physical', 'dmg': 60, 'succ': 0.8, 'mp_cost': 0}, {'name': 'Shiv', 'type': 'physical', 'dmg': 80, 'succ': 0.8, 'mp_cost': 0}, {'name': 'Magic Shiv', 'type': 'spell', 'dmg': 100, 'succ': 0.75, 'mp_cost': 10}]"
110,458,1604.0,46.0,1,"[{'name': 'Punch', 'type': 'physical', 'dmg': 50, 'succ': 0.9, 'mp_cost': 0}, {'name': 'Kick', 'type': 'physical', 'dmg': 60, 'succ': 0.8, 'mp_cost': 0}, {'name': 'Shiv', 'type': 'physical', 'dmg': 80, 'succ': 0.8, 'mp_cost': 0}, {'name': 'Magic Shiv', 'type': 'spell', 'dmg': 100, 'succ': 0.75, 'mp_cost': 10}]"
111,459,1604.0,64.0,1,"[{'name': 'Punch', 'type': 'physical', 'dmg': 50, 'succ': 0.9, 'mp_cost': 0}, {'name': 'Kick', 'type': 'physical', 'dmg': 60, 'succ': 0.8, 'mp_cost': 0}, {'name': 'Shiv', 'type': 'physical', 'dmg': 80, 'succ': 0.8, 'mp_cost': 0}, {'name': 'Magic Shiv', 'type': 'spell', 'dmg': 100, 'succ': 0.75, 'mp_cost': 10}]"
112,460,1604.0,82.0,1,"[{'name': 'Punch', 'type': 'physical', 'dmg': 50, 'succ': 0.9, 'mp_cost': 0}, {'name': 'Kick', 'type': 'physical', 'dmg': 60, 'succ': 0.8, 'mp_cost': 0}, {'name': 'Shiv', 'type': 'physical', 'dmg': 80, 'succ': 0.8, 'mp_cost': 0}, {'name': 'Magic Shiv', 'type': 'spell', 'dmg': 100, 'succ': 0.75, 'mp_cost': 10}]"
113,461,1604.0,100.0,1,"[{'name': 'Punch', 'type': 'physical', 'dmg': 50, 'succ': 0.9, 'mp_cost': 0}, {'name': 'Kick', 'type': 'physical', 'dmg': 60, 'succ': 0.8, 'mp_cost': 0}, {'name': 'Shiv', 'type': 'physical', 'dmg': 80, 'succ': 0.8, 'mp_cost': 0}, {'name': 'Magic Shiv', 'type': 'spell', 'dmg': 100, 'succ': 0.75, 'mp_cost': 10}]"
114,462,2000.0,10.0,1,"[{'name': 'Punch', 'type': 'physical', 'dmg': 50, 'succ': 0.9, 'mp_cost': 0}, {'name': 'Kick', 'type': 'physical', 'dmg': 60, 'succ': 0.8, 'mp_cost': 0}, {'name': 'Shiv', 'type': 'physical', 'dmg': 80, 'succ': 0.8, 'mp_cost': 0}, {'name': 'Magic Shiv', 'type': 'spell', 'dmg': 100, 'succ': 0.75, 'mp_cost': 10}]"
115,463,2000.0,28.0,1,"[{'name': 'Punch', 'type': 'physical', 'dmg': 50, 'succ': 0.9, 'mp_cost': 0}, {'name': 'Kick', 'type': 'physical', 'dmg': 60, 'succ': 0.8, 'mp_cost': 0}, {'name': 'Shiv', 'type': 'physical', 'dmg': 80, 'succ': 0.8, 'mp_cost': 0}, {'name': 'Magic Shiv', 'type': 'spell', 'dmg': 100, 'succ': 0.75, 'mp_cost': 10}]"
116,464,2000.0,46.0,1,"[{'name': 'Punch', 'type': 'physical', 'dmg': 50, 'succ': 0.9, 'mp_cost': 0}, {'name': 'Kick', 'type': 'physical', 'dmg': 60, 'succ': 0.8, 'mp_cost': 0}, {'name': 'Shiv', 'type': 'physical', 'dmg': 80, 'succ': 0.8, 'mp_cost': 0}, {'name': 'Magic Shiv', 'type': 'spell', 'dmg': 100, 'succ': 0.75, 'mp_cost': 10}]"
117,465,2000.0,64.0,1,"[{'name': 'Punch', 'type': 'physical', 'dmg': 50, 'succ': 0.9, 'mp_cost': 0}, {'name': 'Kick', 'type': 'physical', 'dmg': 60, 'succ': 0.8, 'mp_cost': 0}, {'name': 'Shiv', 'type': 'physical', 'dmg': 80, 'succ': 0.8, 'mp_cost': 0}, {'name': 'Magic Shiv', 'type': 'spell', 'dmg': 100, 'succ': 0.75, 'mp_cost': 10}]"
118,466,2000.0,82.0,1,"[{'name': 'Punch', 'type': 'physical', 'dmg': 50, 'succ': 0.9, 'mp_cost': 0}, {'name': 'Kick', 'type': 'physical', 'dmg': 60, 'succ': 0.8, 'mp_cost': 0}, {'name': 'Shiv', 'type': 'physical', 'dmg': 80, 'succ': 0.8, 'mp_cost': 0}, {'name': 'Magic Shiv', 'type': 'spell', 'dmg': 100, 'succ': 0.75, 'mp_cost': 10}]"
119,467,2000.0,100.0,1,"[{'name': 'Punch', 'type': 'physical', 'dmg': 50, 'succ': 0.9, 'mp_cost': 0}, {'name': 'Kick', 'type': 'physical', 'dmg': 60, 'succ': 0.8, 'mp_cost': 0}, {'name': 'Shiv', 'type': 'physical', 'dmg': 80, 'succ': 0.8, 'mp_cost': 0}, {'name': 'Magic Shiv', 'type': 'spell', 'dmg': 100, 'succ': 0.75, 'mp_cost': 10}]"
120,468,20.0,10.0,10,"[{'name': 'Punch', 'type': 'physical', 'dmg': 50, 'succ': 0.9, 'mp_cost': 0}, {'name': 'Kick', 'type': 'physical', 'dmg': 60, 'succ': 0.8, 'mp_cost': 0}, {'name': 'Shiv', 'type': 'physical', 'dmg': 80, 'succ': 0.8, 'mp_cost': 0}, {'name': 'Magic Shiv', 'type': 'spell', 'dmg': 100, 'succ': 0.75, 'mp_cost': 10}]"
121,469,20.0,28.0,10,"[{'name': 'Punch', 'type': 'physical', 'dmg': 50, 'succ': 0.9, 'mp_cost': 0}, {'name': 'Kick', 'type': 'physical', 'dmg': 60, 'succ': 0.8, 'mp_cost': 0}, {'name': 'Shiv', 'type': 'physical', 'dmg': 80, 'succ': 0.8, 'mp_cost': 0}, {'name': 'Magic Shiv', 'type': 'spell', 'dmg': 100, 'succ': 0.75, 'mp_cost': 10}]"
122,470,20.0,46.0,10,"[{'name': 'Punch', 'type': 'physical', 'dmg': 50, 'succ': 0.9, 'mp_cost': 0}, {'name': 'Kick', 'type': 'physical', 'dmg': 60, 'succ': 0.8, 'mp_cost': 0}, {'name': 'Shiv', 'type': 'physical', 'dmg': 80, 'succ': 0.8, 'mp_cost': 0}, {'name': 'Magic Shiv', 'type': 'spell', 'dmg': 100, 'succ': 0.75, 'mp_cost': 10}]"
123,471,20.0,64.0,10,"[{'name': 'Punch', 'type': 'physical', 'dmg': 50, 'succ': 0.9, 'mp_cost': 0}, {'name': 'Kick', 'type': 'physical', 'dmg': 60, 'succ': 0.8, 'mp_cost': 0}, {'name': 'Shiv', 'type': 'physical', 'dmg': 80, 'succ': 0.8, 'mp_cost': 0}, {'name': 'Magic Shiv', 'type': 'spell', 'dmg': 100, 'succ': 0.75, 'mp_cost': 10}]"
124,472,20.0,82.0,10,"[{'name': 'Punch', 'type': 'physical', 'dmg': 50, 'succ': 0.9, 'mp_cost': 0}, {'name': 'Kick', 'type': 'physical', 'dmg': 60, 'succ': 0.8, 'mp_cost': 0}, {'name': 'Shiv', 'type': 'physical', 'dmg': 80, 'succ': 0.8, 'mp_cost': 0}, {'name': 'Magic Shiv', 'type': 'spell', 'dmg': 100, 'succ': 0.75, 'mp_cost': 10}]"
125,473,20.0,100.0,10,"[{'name': 'Punch', 'type': 'physical', 'dmg': 50, 'succ': 0.9, 'mp_cost': 0}, {'name': 'Kick', 'type': 'physical', 'dmg': 60, 'succ': 0.8, 'mp_cost': 0}, {'name': 'Shiv', 'type': 'physical', 'dmg': 80, 'succ': 0.8, 'mp_cost': 0}, {'name': 'Magic Shiv', 'type': 'spell', 'dmg': 100, 'succ': 0.75, 'mp_cost': 10}]"
126,648,20.0,10.0,1,"[{'name': 'Punch', 'type': 'physical', 'dmg': 50, 'succ': 0.9, 'mp_cost': 0}, {'name': 'Kick', 'type': 'physical', 'dmg': 60, 'succ': 0.8, 'mp_cost': 0}, {'name': 'Skyuppercut', 'type': 'physical', 'dmg': 90, 'succ': 0.75, 'mp_cost': 0}, {'name': 'Chuck Norris roundhouse kick', 'type': 'physical', 'dmg': 9999, 'succ': 0.01, 'mp_cost': 0}]"
127,649,20.0,28.0,1,"[{'name': 'Punch', 'type': 'physical', 'dmg': 50, 'succ': 0.9, 'mp_cost': 0}, {'name': 'Kick', 'type': 'physical', 'dmg': 60, 'succ': 0.8, 'mp_cost': 0}, {'name': 'Skyuppercut', 'type': 'physical', 'dmg': 90, 'succ': 0.75, 'mp_cost': 0}, {'name': 'Chuck Norris roundhouse kick', 'type': 'physical', 'dmg': 9999, 'succ': 0.01, 'mp_cost': 0}]"
128,650,20.0,46.0,1,"[{'name': 'Punch', 'type': 'physical', 'dmg': 50, 'succ': 0.9, 'mp_cost': 0}, {'name': 'Kick', 'type': 'physical', 'dmg': 60, 'succ': 0.8, 'mp_cost': 0}, {'name': 'Skyuppercut', 'type': 'physical', 'dmg': 90, 'succ': 0.75, 'mp_cost': 0}, {'name': 'Chuck Norris roundhouse kick', 'type': 'physical', 'dmg': 9999, 'succ': 0.01, 'mp_cost': 0}]"
129,651,20.0,64.0,1,"[{'name': 'Punch', 'type': 'physical', 'dmg': 50, 'succ': 0.9, 'mp_cost': 0}, {'name': 'Kick', 'type': 'physical', 'dmg': 60, 'succ': 0.8, 'mp_cost': 0}, {'name': 'Skyuppercut', 'type': 'physical', 'dmg': 90, 'succ': 0.75, 'mp_cost': 0}, {'name': 'Chuck Norris roundhouse kick', 'type': 'physical', 'dmg': 9999, 'succ': 0.01, 'mp_cost': 0}]"
130,652,20.0,82.0,1,"[{'name': 'Punch', 'type': 'physical', 'dmg': 50, 'succ': 0.9, 'mp_cost': 0}, {'name': 'Kick', 'type': 'physical', 'dmg': 60, 'succ': 0.8, 'mp_cost': 0}, {'name': 'Skyuppercut', 'type': 'physical', 'dmg': 90, 'succ': 0.75, 'mp_cost': 0}, {'name': 'Chuck Norris roundhouse kick', 'type': 'physical', 'dmg': 9999, 'succ': 0.01, 'mp_cost': 0}]"
131,653,20.0,100.0,1,"[{'name': 'Punch', 'type': 'physical', 'dmg': 50, 'succ': 0.9, 'mp_cost': 0}, {'name': 'Kick', 'type': 'physical', 'dmg': 60, 'succ': 0.8, 'mp_cost': 0}, {'name': 'Skyuppercut', 'type': 'physical', 'dmg': 90, 'succ': 0.75, 'mp_cost': 0}, {'name': 'Chuck Norris roundhouse kick', 'type': 'physical', 'dmg': 9999, 'succ': 0.01, 'mp_cost': 0}]"
132,654,416.0,10.0,1,"[{'name': 'Punch', 'type': 'physical', 'dmg': 50, 'succ': 0.9, 'mp_cost': 0}, {'name': 'Kick', 'type': 'physical', 'dmg': 60, 'succ': 0.8, 'mp_cost': 0}, {'name': 'Skyuppercut', 'type': 'physical', 'dmg': 90, 'succ': 0.75, 'mp_cost': 0}, {'name': 'Chuck Norris roundhouse kick', 'type': 'physical', 'dmg': 9999, 'succ': 0.01, 'mp_cost': 0}]"
133,655,416.0,28.0,1,"[{'name': 'Punch', 'type': 'physical', 'dmg': 50, 'succ': 0.9, 'mp_cost': 0}, {'name': 'Kick', 'type': 'physical', 'dmg': 60, 'succ': 0.8, 'mp_cost': 0}, {'name': 'Skyuppercut', 'type': 'physical', 'dmg': 90, 'succ': 0.75, 'mp_cost': 0}, {'name': 'Chuck Norris roundhouse kick', 'type': 'physical', 'dmg': 9999, 'succ': 0.01, 'mp_cost': 0}]"
134,656,416.0,46.0,1,"[{'name': 'Punch', 'type': 'physical', 'dmg': 50, 'succ': 0.9, 'mp_cost': 0}, {'name': 'Kick', 'type': 'physical', 'dmg': 60, 'succ': 0.8, 'mp_cost': 0}, {'name': 'Skyuppercut', 'type': 'physical', 'dmg': 90, 'succ': 0.75, 'mp_cost': 0}, {'name': 'Chuck Norris roundhouse kick', 'type': 'physical', 'dmg': 9999, 'succ': 0.01, 'mp_cost': 0}]"
135,657,416.0,64.0,1,"[{'name': 'Punch', 'type': 'physical', 'dmg': 50, 'succ': 0.9, 'mp_cost': 0}, {'name': 'Kick', 'type': 'physical', 'dmg': 60, 'succ': 0.8, 'mp_cost': 0}, {'name': 'Skyuppercut', 'type': 'physical', 'dmg': 90, 'succ': 0.75, 'mp_cost': 0}, {'name': 'Chuck Norris roundhouse kick', 'type': 'physical', 'dmg': 9999, 'succ': 0.01, 'mp_cost': 0}]"
136,658,416.0,82.0,1,"[{'name': 'Punch', 'type': 'physical', 'dmg': 50, 'succ': 0.9, 'mp_cost': 0}, {'name': 'Kick', 'type': 'physical', 'dmg': 60, 'succ': 0.8, 'mp_cost': 0}, {'name': 'Skyuppercut', 'type': 'physical', 'dmg': 90, 'succ': 0.75, 'mp_cost': 0}, {'name': 'Chuck Norris roundhouse kick', 'type': 'physical', 'dmg': 9999, 'succ': 0.01, 'mp_cost': 0}]"
137,659,416.0,100.0,1,"[{'name': 'Punch', 'type': 'physical', 'dmg': 50, 'succ': 0.9, 'mp_cost': 0}, {'name': 'Kick', 'type': 'physical', 'dmg': 60, 'succ': 0.8, 'mp_cost': 0}, {'name': 'Skyuppercut', 'type': 'physical', 'dmg': 90, 'succ': 0.75, 'mp_cost': 0}, {'name': 'Chuck Norris roundhouse kick', 'type': 'physical', 'dmg': 9999, 'succ': 0.01, 'mp_cost': 0}]"
138,660,812.0,10.0,1,"[{'name': 'Punch', 'type': 'physical', 'dmg': 50, 'succ': 0.9, 'mp_cost': 0}, {'name': 'Kick', 'type': 'physical', 'dmg': 60, 'succ': 0.8, 'mp_cost': 0}, {'name': 'Skyuppercut', 'type': 'physical', 'dmg': 90, 'succ': 0.75, 'mp_cost': 0}, {'name': 'Chuck Norris roundhouse kick', 'type': 'physical', 'dmg': 9999, 'succ': 0.01, 'mp_cost': 0}]"
139,661,812.0,28.0,1,"[{'name': 'Punch', 'type': 'physical', 'dmg': 50, 'succ': 0.9, 'mp_cost': 0}, {'name': 'Kick', 'type': 'physical', 'dmg': 60, 'succ': 0.8, 'mp_cost': 0}, {'name': 'Skyuppercut', 'type': 'physical', 'dmg': 90, 'succ': 0.75, 'mp_cost': 0}, {'name': 'Chuck Norris roundhouse kick', 'type': 'physical', 'dmg': 9999, 'succ': 0.01, 'mp_cost': 0}]"
140,662,812.0,46.0,1,"[{'name': 'Punch', 'type': 'physical', 'dmg': 50, 'succ': 0.9, 'mp_cost': 0}, {'name': 'Kick', 'type': 'physical', 'dmg': 60, 'succ': 0.8, 'mp_cost': 0}, {'name': 'Skyuppercut', 'type': 'physical', 'dmg': 90, 'succ': 0.75, 'mp_cost': 0}, {'name': 'Chuck Norris roundhouse kick', 'type': 'physical', 'dmg': 9999, 'succ': 0.01, 'mp_cost': 0}]"
141,663,812.0,64.0,1,"[{'name': 'Punch', 'type': 'physical', 'dmg': 50, 'succ': 0.9, 'mp_cost': 0}, {'name': 'Kick', 'type': 'physical', 'dmg': 60, 'succ': 0.8, 'mp_cost': 0}, {'name': 'Skyuppercut', 'type': 'physical', 'dmg': 90, 'succ': 0.75, 'mp_cost': 0}, {'name': 'Chuck Norris roundhouse kick', 'type': 'physical', 'dmg': 9999, 'succ': 0.01, 'mp_cost': 0}]"
142,664,812.0,82.0,1,"[{'name': 'Punch', 'type': 'physical', 'dmg': 50, 'succ': 0.9, 'mp_cost': 0}, {'name': 'Kick', 'type': 'physical', 'dmg': 60, 'succ': 0.8, 'mp_cost': 0}, {'name': 'Skyuppercut', 'type': 'physical', 'dmg': 90, 'succ': 0.75, 'mp_cost': 0}, {'name': 'Chuck Norris roundhouse kick', 'type': 'physical', 'dmg': 9999, 'succ': 0.01, 'mp_cost': 0}]"
143,665,812.0,100.0,1,"[{'name': 'Punch', 'type': 'physical', 'dmg': 50, 'succ': 0.9, 'mp_cost': 0}, {'name': 'Kick', 'type': 'physical', 'dmg': 60, 'succ': 0.8, 'mp_cost': 0}, {'name': 'Skyuppercut', 'type': 'physical', 'dmg': 90, 'succ': 0.75, 'mp_cost': 0}, {'name': 'Chuck Norris roundhouse kick', 'type': 'physical', 'dmg': 9999, 'succ': 0.01, 'mp_cost': 0}]"
144,666,1208.0,10.0,1,"[{'name': 'Punch', 'type': 'physical', 'dmg': 50, 'succ': 0.9, 'mp_cost': 0}, {'name': 'Kick', 'type': 'physical', 'dmg': 60, 'succ': 0.8, 'mp_cost': 0}, {'name': 'Skyuppercut', 'type': 'physical', 'dmg': 90, 'succ': 0.75, 'mp_cost': 0}, {'name': 'Chuck Norris roundhouse kick', 'type': 'physical', 'dmg': 9999, 'succ': 0.01, 'mp_cost': 0}]"
145,667,1208.0,28.0,1,"[{'name': 'Punch', 'type': 'physical', 'dmg': 50, 'succ': 0.9, 'mp_cost': 0}, {'name': 'Kick', 'type': 'physical', 'dmg': 60, 'succ': 0.8, 'mp_cost': 0}, {'name': 'Skyuppercut', 'type': 'physical', 'dmg': 90, 'succ': 0.75, 'mp_cost': 0}, {'name': 'Chuck Norris roundhouse kick', 'type': 'physical', 'dmg': 9999, 'succ': 0.01, 'mp_cost': 0}]"
146,668,1208.0,46.0,1,"[{'name': 'Punch', 'type': 'physical', 'dmg': 50, 'succ': 0.9, 'mp_cost': 0}, {'name': 'Kick', 'type': 'physical', 'dmg': 60, 'succ': 0.8, 'mp_cost': 0}, {'name': 'Skyuppercut', 'type': 'physical', 'dmg': 90, 'succ': 0.75, 'mp_cost': 0}, {'name': 'Chuck Norris roundhouse kick', 'type': 'physical', 'dmg': 9999, 'succ': 0.01, 'mp_cost': 0}]"
147,669,1208.0,64.0,1,"[{'name': 'Punch', 'type': 'physical', 'dmg': 50, 'succ': 0.9, 'mp_cost': 0}, {'name': 'Kick', 'type': 'physical', 'dmg': 60, 'succ': 0.8, 'mp_cost': 0}, {'name': 'Skyuppercut', 'type': 'physical', 'dmg': 90, 'succ': 0.75, 'mp_cost': 0}, {'name': 'Chuck Norris roundhouse kick', 'type': 'physical', 'dmg': 9999, 'succ': 0.01, 'mp_cost': 0}]"
148,670,1208.0,82.0,1,"[{'name': 'Punch', 'type': 'physical', 'dmg': 50, 'succ': 0.9, 'mp_cost': 0}, {'name': 'Kick', 'type': 'physical', 'dmg': 60, 'succ': 0.8, 'mp_cost': 0}, {'name': 'Skyuppercut', 'type': 'physical', 'dmg': 90, 'succ': 0.75, 'mp_cost': 0}, {'name': 'Chuck Norris roundhouse kick', 'type': 'physical', 'dmg': 9999, 'succ': 0.01, 'mp_cost': 0}]"
149,671,1208.0,100.0,1,"[{'name': 'Punch', 'type': 'physical', 'dmg': 50, 'succ': 0.9, 'mp_cost': 0}, {'name': 'Kick', 'type': 'physical', 'dmg': 60, 'succ': 0.8, 'mp_cost': 0}, {'name': 'Skyuppercut', 'type': 'physical', 'dmg': 90, 'succ': 0.75, 'mp_cost': 0}, {'name': 'Chuck Norris roundhouse kick', 'type': 'physical', 'dmg': 9999, 'succ': 0.01, 'mp_cost': 0}]"
150,672,1604.0,10.0,1,"[{'name': 'Punch', 'type': 'physical', 'dmg': 50, 'succ': 0.9, 'mp_cost': 0}, {'name': 'Kick', 'type': 'physical', 'dmg': 60, 'succ': 0.8, 'mp_cost': 0}, {'name': 'Skyuppercut', 'type': 'physical', 'dmg': 90, 'succ': 0.75, 'mp_cost': 0}, {'name': 'Chuck Norris roundhouse kick', 'type': 'physical', 'dmg': 9999, 'succ': 0.01, 'mp_cost': 0}]"
151,673,1604.0,28.0,1,"[{'name': 'Punch', 'type': 'physical', 'dmg': 50, 'succ': 0.9, 'mp_cost': 0}, {'name': 'Kick', 'type': 'physical', 'dmg': 60, 'succ': 0.8, 'mp_cost': 0}, {'name': 'Skyuppercut', 'type': 'physical', 'dmg': 90, 'succ': 0.75, 'mp_cost': 0}, {'name': 'Chuck Norris roundhouse kick', 'type': 'physical', 'dmg': 9999, 'succ': 0.01, 'mp_cost': 0}]"
152,674,1604.0,46.0,1,"[{'name': 'Punch', 'type': 'physical', 'dmg': 50, 'succ': 0.9, 'mp_cost': 0}, {'name': 'Kick', 'type': 'physical', 'dmg': 60, 'succ': 0.8, 'mp_cost': 0}, {'name': 'Skyuppercut', 'type': 'physical', 'dmg': 90, 'succ': 0.75, 'mp_cost': 0}, {'name': 'Chuck Norris roundhouse kick', 'type': 'physical', 'dmg': 9999, 'succ': 0.01, 'mp_cost': 0}]"
153,675,1604.0,64.0,1,"[{'name': 'Punch', 'type': 'physical', 'dmg': 50, 'succ': 0.9, 'mp_cost': 0}, {'name': 'Kick', 'type': 'physical', 'dmg': 60, 'succ': 0.8, 'mp_cost': 0}, {'name': 'Skyuppercut', 'type': 'physical', 'dmg': 90, 'succ': 0.75, 'mp_cost': 0}, {'name': 'Chuck Norris roundhouse kick', 'type': 'physical', 'dmg': 9999, 'succ': 0.01, 'mp_cost': 0}]"
154,676,1604.0,82.0,1,"[{'name': 'Punch', 'type': 'physical', 'dmg': 50, 'succ': 0.9, 'mp_cost': 0}, {'name': 'Kick', 'type': 'physical', 'dmg': 60, 'succ': 0.8, 'mp_cost': 0}, {'name': 'Skyuppercut', 'type': 'physical', 'dmg': 90, 'succ': 0.75, 'mp_cost': 0}, {'name': 'Chuck Norris roundhouse kick', 'type': 'physical', 'dmg': 9999, 'succ': 0.01, 'mp_cost': 0}]"
155,677,1604.0,100.0,1,"[{'name': 'Punch', 'type': 'physical', 'dmg': 50, 'succ': 0.9, 'mp_cost': 0}, {'name': 'Kick', 'type': 'physical', 'dmg': 60, 'succ': 0.8, 'mp_cost': 0}, {'name': 'Skyuppercut', 'type': 'physical', 'dmg': 90, 'succ': 0.75, 'mp_cost': 0}, {'name': 'Chuck Norris roundhouse kick', 'type': 'physical', 'dmg': 9999, 'succ': 0.01, 'mp_cost': 0}]"
156,678,2000.0,10.0,1,"[{'name': 'Punch', 'type': 'physical', 'dmg': 50, 'succ': 0.9, 'mp_cost': 0}, {'name': 'Kick', 'type': 'physical', 'dmg': 60, 'succ': 0.8, 'mp_cost': 0}, {'name': 'Skyuppercut', 'type': 'physical', 'dmg': 90, 'succ': 0.75, 'mp_cost': 0}, {'name': 'Chuck Norris roundhouse kick', 'type': 'physical', 'dmg': 9999, 'succ': 0.01, 'mp_cost': 0}]"
157,679,2000.0,28.0,1,"[{'name': 'Punch', 'type': 'physical', 'dmg': 50, 'succ': 0.9, 'mp_cost': 0}, {'name': 'Kick', 'type': 'physical', 'dmg': 60, 'succ': 0.8, 'mp_cost': 0}, {'name': 'Skyuppercut', 'type': 'physical', 'dmg': 90, 'succ': 0.75, 'mp_cost': 0}, {'name': 'Chuck Norris roundhouse kick', 'type': 'physical', 'dmg': 9999, 'succ': 0.01, 'mp_cost': 0}]"
158,680,2000.0,46.0,1,"[{'name': 'Punch', 'type': 'physical', 'dmg': 50, 'succ': 0.9, 'mp_cost': 0}, {'name': 'Kick', 'type': 'physical', 'dmg': 60, 'succ': 0.8, 'mp_cost': 0}, {'name': 'Skyuppercut', 'type': 'physical', 'dmg': 90, 'succ': 0.75, 'mp_cost': 0}, {'name': 'Chuck Norris roundhouse kick', 'type': 'physical', 'dmg': 9999, 'succ': 0.01, 'mp_cost': 0}]"
159,681,2000.0,64.0,1,"[{'name': 'Punch', 'type': 'physical', 'dmg': 50, 'succ': 0.9, 'mp_cost': 0}, {'name': 'Kick', 'type': 'physical', 'dmg': 60, 'succ': 0.8, 'mp_cost': 0}, {'name': 'Skyuppercut', 'type': 'physical', 'dmg': 90, 'succ': 0.75, 'mp_cost': 0}, {'name': 'Chuck Norris roundhouse kick', 'type': 'physical', 'dmg': 9999, 'succ': 0.01, 'mp_cost': 0}]"
160,682,2000.0,82.0,1,"[{'name': 'Punch', 'type': 'physical', 'dmg': 50, 'succ': 0.9, 'mp_cost': 0}, {'name': 'Kick', 'type': 'physical', 'dmg': 60, 'succ': 0.8, 'mp_cost': 0}, {'name': 'Skyuppercut', 'type': 'physical', 'dmg': 90, 'succ': 0.75, 'mp_cost': 0}, {'name': 'Chuck Norris roundhouse kick', 'type': 'physical', 'dmg': 9999, 'succ': 0.01, 'mp_cost': 0}]"
161,683,2000.0,100.0,1,"[{'name': 'Punch', 'type': 'physical', 'dmg': 50, 'succ': 0.9, 'mp_cost': 0}, {'name': 'Kick', 'type': 'physical', 'dmg': 60, 'succ': 0.8, 'mp_cost': 0}, {'name': 'Skyuppercut', 'type': 'physical', 'dmg': 90, 'succ': 0.75, 'mp_cost': 0}, {'name': 'Chuck Norris roundhouse kick', 'type': 'physical', 'dmg': 9999, 'succ': 0.01, 'mp_cost': 0}]"
162,684,20.0,10.0,10,"[{'name': 'Punch', 'type': 'physical', 'dmg': 50, 'succ': 0.9, 'mp_cost': 0}, {'name': 'Kick', 'type': 'physical', 'dmg': 60, 'succ': 0.8, 'mp_cost': 0}, {'name': 'Skyuppercut', 'type': 'physical', 'dmg': 90, 'succ': 0.75, 'mp_cost': 0}, {'name': 'Chuck Norris roundhouse kick', 'type': 'physical', 'dmg': 9999, 'succ': 0.01, 'mp_cost': 0}]"
163,685,20.0,28.0,10,"[{'name': 'Punch', 'type': 'physical', 'dmg': 50, 'succ': 0.9, 'mp_cost': 0}, {'name': 'Kick', 'type': 'physical', 'dmg': 60, 'succ': 0.8, 'mp_cost': 0}, {'name': 'Skyuppercut', 'type': 'physical', 'dmg': 90, 'succ': 0.75, 'mp_cost': 0}, {'name': 'Chuck Norris roundhouse kick', 'type': 'physical', 'dmg': 9999, 'succ': 0.01, 'mp_cost': 0}]"
164,686,20.0,46.0,10,"[{'name': 'Punch', 'type': 'physical', 'dmg': 50, 'succ': 0.9, 'mp_cost': 0}, {'name': 'Kick', 'type': 'physical', 'dmg': 60, 'succ': 0.8, 'mp_cost': 0}, {'name': 'Skyuppercut', 'type': 'physical', 'dmg': 90, 'succ': 0.75, 'mp_cost': 0}, {'name': 'Chuck Norris roundhouse kick', 'type': 'physical', 'dmg': 9999, 'succ': 0.01, 'mp_cost': 0}]"
165,687,20.0,64.0,10,"[{'name': 'Punch', 'type': 'physical', 'dmg': 50, 'succ': 0.9, 'mp_cost': 0}, {'name': 'Kick', 'type': 'physical', 'dmg': 60, 'succ': 0.8, 'mp_cost': 0}, {'name': 'Skyuppercut', 'type': 'physical', 'dmg': 90, 'succ': 0.75, 'mp_cost': 0}, {'name': 'Chuck Norris roundhouse kick', 'type': 'physical', 'dmg': 9999, 'succ': 0.01, 'mp_cost': 0}]"
166,688,20.0,82.0,10,"[{'name': 'Punch', 'type': 'physical', 'dmg': 50, 'succ': 0.9, 'mp_cost': 0}, {'name': 'Kick', 'type': 'physical', 'dmg': 60, 'succ': 0.8, 'mp_cost': 0}, {'name': 'Skyuppercut', 'type': 'physical', 'dmg': 90, 'succ': 0.75, 'mp_cost': 0}, {'name': 'Chuck Norris roundhouse kick', 'type': 'physical', 'dmg': 9999, 'succ': 0.01, 'mp_cost': 0}]"
167,689,20.0,100.0,10,"[{'name': 'Punch', 'type': 'physical', 'dmg': 50, 'succ': 0.9, 'mp_cost': 0}, {'name': 'Kick', 'type': 'physical', 'dmg': 60, 'succ': 0.8, 'mp_cost': 0}, {'name': 'Skyuppercut', 'type': 'physical', 'dmg': 90, 'succ': 0.75, 'mp_cost': 0}, {'name': 'Chuck Norris roundhouse kick', 'type': 'physical', 'dmg': 9999, 'succ': 0.01, 'mp_cost': 0}]"
168,690,416.0,10.0,10,"[{'name': 'Punch', 'type': 'physical', 'dmg': 50, 'succ': 0.9, 'mp_cost': 0}, {'name': 'Kick', 'type': 'physical', 'dmg': 60, 'succ': 0.8, 'mp_cost': 0}, {'name': 'Skyuppercut', 'type': 'physical', 'dmg': 90, 'succ': 0.75, 'mp_cost': 0}, {'name': 'Chuck Norris roundhouse kick', 'type': 'physical', 'dmg': 9999, 'succ': 0.01, 'mp_cost': 0}]"
169,691,416.0,28.0,10,"[{'name': 'Punch', 'type': 'physical', 'dmg': 50, 'succ': 0.9, 'mp_cost': 0}, {'name': 'Kick', 'type': 'physical', 'dmg': 60, 'succ': 0.8, 'mp_cost': 0}, {'name': 'Skyuppercut', 'type': 'physical', 'dmg': 90, 'succ': 0.75, 'mp_cost': 0}, {'name': 'Chuck Norris roundhouse kick', 'type': 'physical', 'dmg': 9999, 'succ': 0.01, 'mp_cost': 0}]"
170,693,416.0,64.0,10,"[{'name': 'Punch', 'type': 'physical', 'dmg': 50, 'succ': 0.9, 'mp_cost': 0}, {'name': 'Kick', 'type': 'physical', 'dmg': 60, 'succ': 0.8, 'mp_cost': 0}, {'name': 'Skyuppercut', 'type': 'physical', 'dmg': 90, 'succ': 0.75, 'mp_cost': 0}, {'name': 'Chuck Norris roundhouse kick', 'type': 'physical', 'dmg': 9999, 'succ': 0.01, 'mp_cost': 0}]"
171,695,416.0,100.0,10,"[{'name': 'Punch', 'type': 'physical', 'dmg': 50, 'succ': 0.9, 'mp_cost': 0}, {'name': 'Kick', 'type': 'physical', 'dmg': 60, 'succ': 0.8, 'mp_cost': 0}, {'name': 'Skyuppercut', 'type': 'physical', 'dmg': 90, 'succ': 0.75, 'mp_cost': 0}, {'name': 'Chuck Norris roundhouse kick', 'type': 'physical', 'dmg': 9999, 'succ': 0.01, 'mp_cost': 0}]"
172,720,20.0,10.0,20,"[{'name': 'Punch', 'type': 'physical', 'dmg': 50, 'succ': 0.9, 'mp_cost': 0}, {'name': 'Kick', 'type': 'physical', 'dmg': 60, 'succ': 0.8, 'mp_cost': 0}, {'name': 'Skyuppercut', 'type': 'physical', 'dmg': 90, 'succ': 0.75, 'mp_cost': 0}, {'name': 'Chuck Norris roundhouse kick', 'type': 'physical', 'dmg': 9999, 'succ': 0.01, 'mp_cost': 0}]"
