,Victory,Loss,Mean turn,Mean Hp Player,Mean Hp enemy,Mean Mp player,Mean Mp enemy
0,1.0,0.0,1.71,1495.08,0.0,19.0,10.0
1,1.0,0.0,1.69,1492.26,0.0,18.5,25.7
2,1.0,0.0,1.6,1493.7,0.0,18.5,44.2
3,1.0,0.0,1.68,1495.32,0.0,19.1,60.8
4,1.0,0.0,1.54,1497.32,0.0,19.2,79.6
5,1.0,0.0,1.66,1497.54,0.0,18.3,97.5
6,1.0,0.0,4.49,1467.74,0.0,15.7,10.0
7,1.0,0.0,4.19,1472.48,0.0,15.6,22.9
8,1.0,0.0,4.35,1472.5,0.0,15.8,40.1
9,1.0,0.0,4.37,1479.66,0.0,15.8,58.8
10,1.0,0.0,4.8,1478.56,0.0,15.9,76.6
11,1.0,0.0,4.69,1482.3,0.0,15.6,94.7
12,1.0,0.0,7.66,1466.16,0.0,13.2,10.0
13,1.0,0.0,7.64,1462.3,0.0,12.8,19.7
14,1.0,0.0,7.84,1464.58,0.0,12.6,35.9
15,1.0,0.0,7.94,1471.46,0.0,13.0,55.3
16,1.0,0.0,7.8,1449.36,0.0,13.5,70.3
17,1.0,0.0,7.68,1464.68,0.0,12.5,90.4
18,1.0,0.0,11.15,1458.06,0.0,11.6,10.0
19,1.0,0.0,11.4,1448.96,0.0,11.2,15.8
20,1.0,0.0,11.1,1447.92,0.0,11.8,31.1
21,1.0,0.0,10.63,1429.66,0.0,11.5,49.4
22,1.0,0.0,11.33,1446.86,0.0,11.4,67.8
23,1.0,0.0,11.4,1460.4,0.0,11.2,86.8
24,1.0,0.0,13.98,1423.22,0.0,10.9,10.0
25,1.0,0.0,14.69,1417.28,0.0,10.7,15.0
26,1.0,0.0,14.6,1410.0,0.0,10.5,25.9
27,1.0,0.0,14.79,1397.28,0.0,10.6,45.7
28,1.0,0.0,14.42,1411.28,0.0,10.9,64.8
29,1.0,0.0,14.95,1418.5,0.0,10.5,82.3
30,1.0,0.0,17.87,1414.68,0.0,10.3,10.0
31,1.0,0.0,17.46,1378.94,0.0,10.5,13.5
32,1.0,0.0,17.83,1409.8,0.0,10.3,25.3
33,1.0,0.0,17.76,1407.04,0.0,10.2,39.6
34,1.0,0.0,17.74,1417.82,0.0,10.5,60.3
35,1.0,0.0,18.97,1401.7,0.0,10.2,75.0
36,1.0,0.0,1.62,1388.0,0.0,18.4,10.0
37,1.0,0.0,1.61,1401.54,0.0,19.0,25.8
38,1.0,0.0,1.7,1388.32,0.0,18.6,44.2
39,1.0,0.0,1.78,1380.6,0.0,18.9,62.4
40,1.0,0.0,1.64,1386.32,0.0,18.7,80.2
41,1.0,0.0,1.55,1395.84,0.0,18.9,97.7
42,1.0,0.0,4.52,1095.26,0.0,15.0,10.0
43,1.0,0.0,3.93,1137.42,0.0,15.5,22.9
44,1.0,0.0,4.12,1150.9,0.0,15.7,39.9
45,1.0,0.0,4.31,1119.44,0.0,16.5,59.5
46,1.0,0.0,4.09,1138.4,0.0,15.8,78.0
47,0.99,0.010000000000000009,4.48,1074.08,0.8,15.2,93.8
48,0.99,0.010000000000000009,7.52,808.94,2.42,13.2,10.0
49,0.99,0.010000000000000009,7.16,826.4,3.82,13.3,19.3
50,1.0,0.0,7.47,778.54,0.0,12.9,35.4
51,1.0,0.0,7.71,766.7,0.0,11.5,54.9
52,0.96,0.040000000000000036,7.72,782.62,3.78,12.8,72.6
53,0.98,0.020000000000000018,7.28,810.72,5.68,12.3,91.2
54,0.94,0.06000000000000005,10.6,481.34,32.32,11.3,10.0
55,0.87,0.13,11.08,432.6,34.16,12.1,15.9
56,0.87,0.13,10.49,471.26,32.94,11.7,32.5
57,0.85,0.15000000000000002,10.92,458.96,32.24,11.1,51.8
58,0.87,0.13,10.88,471.38,26.72,11.2,67.5
59,0.85,0.15000000000000002,11.12,436.0,38.28,11.1,86.0
60,0.63,0.37,13.29,222.2,107.36,10.9,10.0
61,0.57,0.43000000000000005,13.53,214.88,110.12,10.4,13.9
62,0.66,0.33999999999999997,13.2,247.92,98.88,11.0,32.1
63,0.66,0.33999999999999997,12.67,268.58,117.38,10.8,48.8
64,0.58,0.42000000000000004,13.52,195.92,120.86,10.9,64.9
65,0.62,0.38,13.07,236.52,155.34,10.2,85.0
66,0.31,0.69,14.83,68.44,318.98,10.4,10.0
67,0.25,0.75,14.84,62.18,413.44,10.7,15.1
68,0.26,0.74,14.92,71.08,368.34,10.4,27.3
69,0.31,0.69,14.74,83.0,386.94,10.2,46.7
70,0.29,0.71,14.9,61.26,382.14,10.5,64.9
71,0.33,0.6699999999999999,14.57,116.84,359.04,10.5,83.8
72,1.0,0.0,1.77,1213.18,0.0,18.1,10.0
73,1.0,0.0,1.52,1294.66,0.0,19.3,26.7
74,0.99,0.010000000000000009,1.76,1212.68,0.2,18.5,43.6
75,0.99,0.010000000000000009,1.92,1235.84,0.2,18.0,62.0
76,1.0,0.0,1.56,1264.1,0.0,18.8,79.7
77,1.0,0.0,1.46,1316.84,0.0,19.0,98.4
78,0.96,0.040000000000000036,4.13,808.52,8.34,15.6,10.0
79,0.96,0.040000000000000036,4.34,747.36,3.52,15.7,23.2
80,0.92,0.07999999999999996,4.29,713.24,7.58,14.4,39.5
81,0.87,0.13,4.73,635.94,19.6,14.9,58.2
82,0.91,0.08999999999999997,4.15,711.94,10.14,15.8,76.9
83,0.92,0.07999999999999996,4.32,708.62,15.22,15.9,93.8
84,0.57,0.43000000000000005,6.8,233.68,114.72,12.2,10.0
85,0.5,0.5,6.68,261.36,123.76,13.5,20.7
86,0.47,0.53,6.72,243.24,138.84,12.0,39.5
87,0.59,0.41000000000000003,6.6,251.64,105.08,12.8,57.1
88,0.54,0.45999999999999996,6.72,207.14,97.84,13.5,74.9
89,0.58,0.42000000000000004,6.74,226.9,88.14,13.3,92.9
90,0.1,0.9,7.93,20.36,377.52,11.4,10.0
91,0.19,0.81,7.61,58.52,376.52,11.7,19.5
92,0.21,0.79,7.79,82.66,312.2,12.2,37.2
93,0.19,0.81,7.63,60.62,372.62,12.5,55.7
94,0.12,0.88,7.47,48.0,390.64,12.5,73.7
95,0.21,0.79,7.55,69.02,328.96,12.2,92.1
96,0.02,0.98,8.09,3.98,705.28,11.6,10.0
97,0.02,0.98,8.05,4.12,724.96,12.6,19.4
98,0.02,0.98,8.17,9.22,709.08,11.2,36.1
99,0.04,0.96,8.07,9.04,743.32,12.1,55.7
100,0.03,0.97,7.86,7.48,762.52,11.5,73.7
101,0.01,0.99,7.74,0.28,767.62,11.5,91.7
102,0.0,1.0,7.81,0.0,1126.58,11.3,10.0
103,0.0,1.0,7.99,0.0,1139.4,11.8,20.3
104,0.01,0.99,7.92,1.72,1121.36,12.2,38.3
105,0.0,1.0,7.83,0.0,1114.08,11.8,55.2
106,0.0,1.0,8.05,0.0,1100.96,12.6,73.5
107,0.0,1.0,7.97,0.0,1121.38,11.9,92.5
108,0.99,0.010000000000000009,1.63,1173.18,0.2,18.6,10.0
109,0.99,0.010000000000000009,1.64,1176.68,0.2,18.9,26.3
110,0.98,0.020000000000000018,1.84,1115.42,0.4,18.5,44.3
111,0.97,0.030000000000000027,1.71,1132.54,0.6,18.3,60.9
112,0.97,0.030000000000000027,1.64,1129.0,0.6,18.7,80.2
113,0.98,0.020000000000000018,1.49,1214.14,0.4,19.3,97.4
114,0.71,0.29000000000000004,3.96,414.82,60.24,14.9,10.0
115,0.68,0.31999999999999995,3.77,488.9,44.72,15.7,24.5
116,0.77,0.22999999999999998,3.69,522.66,33.86,15.8,41.5
117,0.7,0.30000000000000004,3.95,479.9,42.28,15.3,59.5
118,0.79,0.20999999999999996,3.74,544.34,36.16,16.1,78.8
119,0.75,0.25,3.68,543.98,37.1,16.2,96.0
120,0.19,0.81,5.14,71.92,294.12,14.0,10.0
121,0.25,0.75,5.0,86.92,261.64,13.9,22.9
122,0.29,0.71,5.0,126.86,266.1,13.9,40.5
123,0.2,0.8,5.09,88.06,274.4,14.2,57.7
124,0.25,0.75,5.2,94.58,251.58,13.5,76.4
125,0.28,0.72,5.22,101.52,261.36,13.0,95.0
126,0.01,0.99,5.46,1.38,620.76,13.3,10.0
127,0.04,0.96,5.49,8.84,607.44,13.8,21.5
128,0.06,0.94,5.43,20.5,587.44,13.9,41.2
129,0.03,0.97,5.4,4.5,598.58,12.8,59.3
130,0.03,0.97,5.46,8.3,619.18,13.5,75.0
131,0.07,0.9299999999999999,5.36,25.48,641.5,13.0,95.1
132,0.0,1.0,5.28,0.0,1016.26,13.2,10.0
133,0.0,1.0,5.45,0.0,1094.08,12.8,23.0
134,0.0,1.0,5.44,0.0,984.3,14.5,41.3
135,0.01,0.99,5.29,4.02,1062.3,13.4,59.7
136,0.0,1.0,5.58,0.0,1010.98,14.2,76.0
137,0.0,1.0,5.47,0.0,1009.16,13.6,95.2
138,0.0,1.0,5.44,0.0,1417.02,14.0,10.0
139,0.0,1.0,5.26,0.0,1445.84,13.9,23.7
140,0.0,1.0,5.17,0.0,1429.1,13.8,40.7
141,0.0,1.0,5.68,0.0,1356.04,13.5,57.9
142,0.0,1.0,5.33,0.0,1460.02,12.7,77.4
143,0.0,1.0,5.81,0.0,1368.18,12.8,95.9
144,0.98,0.020000000000000018,1.53,1045.02,0.4,18.8,10.0
145,0.92,0.07999999999999996,1.68,1020.22,1.6,18.6,25.7
146,0.96,0.040000000000000036,1.61,1015.24,0.8,19.3,44.0
147,0.95,0.050000000000000044,1.57,1035.06,1.0,19.0,62.0
148,0.9,0.09999999999999998,1.67,981.38,2.0,18.8,80.7
149,0.97,0.030000000000000027,1.6,1051.82,0.6,18.8,97.9
150,0.45,0.55,3.4,273.0,88.4,16.1,10.0
151,0.52,0.48,3.55,294.8,79.54,16.1,24.9
152,0.44,0.56,3.44,253.02,109.22,15.4,42.8
153,0.53,0.47,3.3,335.92,73.9,16.4,61.3
154,0.51,0.49,3.54,322.18,91.52,15.6,77.7
155,0.4,0.6,3.4,235.72,123.96,16.5,97.5
156,0.12,0.88,4.34,26.4,333.72,14.6,10.0
157,0.08,0.92,4.2,32.36,370.34,15.5,23.5
158,0.07,0.9299999999999999,4.29,31.64,379.94,14.3,42.1
159,0.07,0.9299999999999999,4.13,17.08,394.54,14.4,60.8
160,0.14,0.86,4.25,64.26,358.66,14.5,77.4
161,0.09,0.91,4.18,33.82,394.82,14.4,96.4
162,0.0,1.0,4.16,0.0,775.24,14.1,10.0
163,0.0,1.0,4.38,0.0,769.74,14.0,24.9
164,0.03,0.97,4.2,13.06,761.22,14.6,41.5
165,0.01,0.99,4.37,2.54,764.96,14.5,59.3
166,0.0,1.0,4.18,0.0,780.72,14.7,78.9
167,0.0,1.0,4.23,0.0,779.58,14.2,95.7
168,0.0,1.0,4.29,0.0,1177.86,14.5,10.0
169,0.0,1.0,4.22,0.0,1136.64,14.5,24.3
170,0.0,1.0,4.3,0.0,1143.64,15.1,41.6
171,0.0,1.0,4.3,0.0,1186.26,14.7,60.3
172,0.0,1.0,4.06,0.0,1154.44,14.5,78.6
173,0.0,1.0,4.29,0.0,1151.96,14.7,96.3
174,0.0,1.0,4.41,0.0,1543.88,14.3,10.0
175,0.0,1.0,4.1,0.0,1522.82,14.5,24.4
176,0.0,1.0,4.34,0.0,1567.7,14.6,42.5
177,0.0,1.0,4.26,0.0,1557.4,14.1,60.5
178,0.0,1.0,4.12,0.0,1601.14,15.4,78.3
179,0.0,1.0,4.11,0.0,1566.2,14.0,97.6
180,0.89,0.10999999999999999,1.69,928.96,2.2,18.5,10.0
181,0.98,0.020000000000000018,1.42,1036.46,0.4,19.0,26.6
182,0.9,0.09999999999999998,1.47,966.68,2.0,18.9,44.4
183,0.9,0.09999999999999998,1.47,957.32,2.0,19.4,62.5
184,0.9,0.09999999999999998,1.58,942.84,2.0,18.0,80.7
185,0.92,0.07999999999999996,1.39,1056.96,1.6,19.0,98.7
186,0.51,0.49,3.15,293.14,93.4,15.9,10.0
187,0.36,0.64,3.12,179.94,146.8,16.9,25.4
188,0.43,0.5700000000000001,3.01,240.7,124.8,17.1,43.3
189,0.38,0.62,2.96,269.18,115.66,16.2,62.0
190,0.4,0.6,3.0,281.8,111.76,16.1,79.5
191,0.36,0.64,3.01,217.98,137.32,15.9,98.2
192,0.02,0.98,3.52,3.8,484.28,15.3,10.0
193,0.07,0.9299999999999999,3.41,29.64,460.18,16.8,25.3
194,0.03,0.97,3.4,6.7,480.96,15.3,43.1
195,0.07,0.9299999999999999,3.61,22.86,465.24,14.6,61.6
196,0.09,0.91,3.54,48.54,444.32,14.8,78.8
197,0.07,0.9299999999999999,3.44,28.18,426.26,15.5,97.4
198,0.0,1.0,3.4,0.0,830.72,16.0,10.0
199,0.0,1.0,3.32,0.0,890.98,16.5,25.5
200,0.01,0.99,3.64,3.22,851.92,14.7,43.6
201,0.01,0.99,3.5,0.4,828.5,15.2,61.5
202,0.01,0.99,3.68,2.34,830.48,14.8,78.9
203,0.0,1.0,3.5,0.0,835.98,15.8,97.7
204,0.0,1.0,3.52,0.0,1204.96,15.3,10.0
205,0.0,1.0,3.5,0.0,1248.9,15.3,22.8
206,0.0,1.0,3.46,0.0,1264.86,15.3,43.1
207,0.0,1.0,3.66,0.0,1210.98,14.7,61.1
208,0.0,1.0,3.56,0.0,1246.92,15.0,79.3
209,0.0,1.0,3.6,0.0,1205.64,14.9,95.6
210,0.0,1.0,3.42,0.0,1624.9,15.5,10.0
211,0.0,1.0,3.37,0.0,1625.2,15.1,24.8
212,0.0,1.0,3.6,0.0,1634.06,15.5,43.2
213,0.0,1.0,3.47,0.0,1637.68,15.3,60.7
214,0.0,1.0,3.39,0.0,1651.64,14.9,78.8
215,0.0,1.0,3.81,0.0,1582.22,14.9,96.9
216,1.0,0.0,1.52,1496.5,0.0,19.0,10.0
217,1.0,0.0,1.53,1495.0,0.0,18.9,22.0
218,1.0,0.0,1.54,1488.8,0.0,18.9,41.8
219,1.0,0.0,1.49,1503.49,0.0,19.3,58.7
220,1.0,0.0,1.53,1493.06,0.0,18.2,74.9
221,1.0,0.0,1.71,1490.77,0.0,18.5,94.0
222,1.0,0.0,4.17,1484.62,0.0,14.8,10.0
223,1.0,0.0,4.17,1486.75,0.0,14.9,16.8
224,1.0,0.0,4.3,1468.79,0.0,15.0,30.1
225,1.0,0.0,4.16,1488.82,0.0,16.1,47.9
226,1.0,0.0,4.66,1482.13,0.0,15.3,64.2
227,1.0,0.0,4.23,1481.26,0.0,15.3,82.8
228,1.0,0.0,7.94,1482.18,0.0,12.0,10.0
229,1.0,0.0,7.64,1480.05,0.0,13.2,11.1
230,1.0,0.0,8.28,1446.76,0.0,12.6,19.3
231,1.0,0.0,7.63,1459.42,0.0,12.8,36.8
232,1.0,0.0,7.33,1461.72,0.0,12.7,56.2
233,1.0,0.0,7.75,1446.47,0.0,13.0,65.8
234,1.0,0.0,10.75,1444.34,0.0,11.1,10.0
235,1.0,0.0,11.06,1449.15,0.0,10.9,10.6
236,1.0,0.0,10.8,1414.49,0.0,11.2,14.3
237,1.0,0.0,10.76,1445.52,0.0,10.7,24.3
238,1.0,0.0,11.22,1448.84,0.0,11.0,35.2
239,1.0,0.0,11.18,1442.52,0.0,11.7,57.6
240,1.0,0.0,14.79,1430.08,0.0,11.0,10.0
241,1.0,0.0,14.55,1438.07,0.0,10.3,8.3
242,1.0,0.0,14.01,1424.46,0.0,10.8,10.2
243,1.0,0.0,14.25,1407.86,0.0,10.4,17.3
244,1.0,0.0,14.58,1427.52,0.0,10.7,28.1
245,1.0,0.0,14.81,1413.27,0.0,10.4,42.4
246,1.0,0.0,17.91,1432.98,0.0,10.3,10.0
247,1.0,0.0,17.89,1414.82,0.0,10.4,8.4
248,1.0,0.0,17.08,1409.46,0.0,10.4,8.0
249,1.0,0.0,17.36,1420.1,0.0,10.5,10.5
250,1.0,0.0,17.62,1411.75,0.0,10.4,19.1
251,1.0,0.0,18.16,1429.49,0.0,10.1,37.8
252,1.0,0.0,1.62,1397.18,0.0,18.4,10.0
253,1.0,0.0,1.61,1399.11,0.0,18.7,23.2
254,1.0,0.0,1.47,1399.26,0.0,18.6,38.9
255,1.0,0.0,1.51,1396.45,0.0,18.7,57.5
256,1.0,0.0,1.71,1395.61,0.0,18.8,75.1
257,1.0,0.0,1.73,1371.04,0.0,18.6,94.0
258,1.0,0.0,4.73,1131.62,0.0,14.7,10.0
259,1.0,0.0,4.23,1144.1,0.0,15.0,17.2
260,1.0,0.0,4.34,1111.16,0.0,15.9,29.0
261,1.0,0.0,4.15,1151.67,0.0,16.3,47.1
262,1.0,0.0,4.56,1072.51,0.0,15.5,64.2
263,1.0,0.0,4.44,1104.17,0.0,15.8,81.7
264,1.0,0.0,7.57,878.6,0.0,12.3,10.0
265,1.0,0.0,7.74,818.39,0.0,12.5,11.2
266,0.97,0.030000000000000027,8.0,773.59,2.5,12.1,20.5
267,0.96,0.040000000000000036,7.99,722.23,11.32,12.2,35.5
268,0.96,0.040000000000000036,7.38,810.23,5.36,13.2,50.2
269,0.97,0.030000000000000027,7.52,752.5,3.36,13.1,70.7
270,0.93,0.06999999999999995,11.01,585.34,3.62,11.4,10.0
271,0.9,0.09999999999999998,11.36,484.84,22.42,10.5,9.2
272,0.91,0.08999999999999997,10.87,462.09,13.32,11.0,13.1
273,0.86,0.14,10.93,480.17,28.2,11.4,24.0
274,0.85,0.15000000000000002,10.64,485.92,36.24,11.2,42.8
275,0.84,0.16000000000000003,11.2,437.11,42.54,11.1,55.6
276,0.73,0.27,14.08,285.54,70.88,10.9,10.0
277,0.72,0.28,13.74,293.01,100.34,10.2,9.4
278,0.71,0.29000000000000004,13.32,271.23,101.52,10.6,10.4
279,0.59,0.41000000000000003,13.57,214.48,139.98,10.9,18.8
280,0.61,0.39,13.37,204.48,127.44,10.6,29.1
281,0.65,0.35,13.36,245.78,112.7,10.3,49.1
282,0.56,0.43999999999999995,15.99,133.22,187.6,10.2,10.0
283,0.41,0.5900000000000001,15.3,114.03,255.3,10.4,9.2
284,0.36,0.64,15.24,81.83,290.74,10.6,9.3
285,0.32,0.6799999999999999,15.2,89.59,286.76,10.4,17.6
286,0.35,0.65,14.86,90.41,321.44,10.6,26.9
287,0.38,0.62,14.66,126.2,339.18,10.5,43.6
288,1.0,0.0,1.67,1286.08,0.0,18.3,10.0
289,1.0,0.0,1.75,1247.78,0.0,18.6,21.3
290,1.0,0.0,1.45,1316.75,0.0,19.2,40.1
291,1.0,0.0,1.48,1317.4,0.0,18.9,57.9
292,1.0,0.0,1.56,1302.19,0.0,19.1,76.0
293,1.0,0.0,1.53,1256.31,0.0,18.7,94.2
294,0.96,0.040000000000000036,4.24,830.04,2.36,15.2,10.0
295,0.92,0.07999999999999996,4.14,808.81,9.46,15.7,16.3
296,0.91,0.08999999999999997,4.23,710.32,18.22,15.6,30.0
297,0.91,0.08999999999999997,3.94,785.38,11.96,15.8,48.0
298,0.92,0.07999999999999996,4.13,793.51,7.28,15.5,68.5
299,0.95,0.050000000000000044,3.89,854.35,4.98,16.6,85.0
300,0.64,0.36,7.04,288.32,101.4,12.2,10.0
301,0.6,0.4,6.59,292.38,89.42,13.6,13.5
302,0.52,0.48,6.7,296.31,127.3,13.3,23.4
303,0.63,0.37,6.41,316.39,73.92,13.3,40.3
304,0.59,0.41000000000000003,6.76,282.33,105.82,13.0,53.9
305,0.61,0.39,6.69,330.95,99.6,13.2,74.0
306,0.26,0.74,8.42,58.96,261.5,11.7,10.0
307,0.14,0.86,8.02,37.6,361.62,12.7,11.6
308,0.24,0.76,7.76,59.59,323.62,12.7,22.9
309,0.18,0.8200000000000001,7.71,68.65,359.34,12.8,35.2
310,0.22,0.78,7.62,71.22,385.64,12.0,53.7
311,0.2,0.8,7.63,77.82,359.94,12.5,72.8
312,0.06,0.94,8.75,16.3,636.84,11.4,10.0
313,0.02,0.98,8.1,5.06,743.92,12.6,11.5
314,0.02,0.98,7.62,7.77,750.04,12.2,23.2
315,0.06,0.94,8.62,11.6,677.54,11.9,36.4
316,0.06,0.94,8.03,29.32,691.72,11.7,56.1
317,0.02,0.98,7.88,8.35,771.88,12.5,71.4
318,0.01,0.99,9.03,0.38,987.96,11.9,10.0
319,0.02,0.98,8.05,0.36,1056.4,12.1,12.9
320,0.0,1.0,8.05,0.0,1145.36,12.5,18.2
321,0.0,1.0,7.73,0.0,1102.06,12.1,35.6
322,0.02,0.98,8.15,5.96,1116.26,11.7,51.9
323,0.0,1.0,7.87,0.0,1173.26,12.0,74.0
324,0.98,0.020000000000000018,1.61,1223.54,0.4,19.4,10.0
325,1.0,0.0,1.63,1160.8,0.0,18.5,22.3
326,0.94,0.06000000000000005,1.67,1125.74,1.2,18.7,40.4
327,0.99,0.010000000000000009,1.51,1190.37,0.2,19.4,58.5
328,0.99,0.010000000000000009,1.67,1128.18,0.2,18.5,74.5
329,0.97,0.030000000000000027,1.76,1072.0,0.6,18.5,91.4
330,0.77,0.22999999999999998,4.19,468.92,29.28,15.1,10.0
331,0.73,0.27,3.78,517.64,37.6,15.4,17.3
332,0.78,0.21999999999999997,3.85,548.4,32.92,15.8,33.3
333,0.73,0.27,3.87,531.84,29.44,16.7,48.6
334,0.7,0.30000000000000004,3.95,443.37,55.68,14.9,66.8
335,0.71,0.29000000000000004,3.72,549.02,39.9,15.2,87.5
336,0.37,0.63,5.72,153.2,194.64,13.5,10.0
337,0.18,0.8200000000000001,5.12,78.67,291.58,13.8,15.8
338,0.21,0.79,4.98,82.54,291.46,13.8,31.4
339,0.25,0.75,5.31,126.61,249.3,13.4,44.9
340,0.32,0.6799999999999999,5.05,151.51,258.5,14.0,68.7
341,0.21,0.79,5.09,71.43,275.1,13.8,83.1
342,0.02,0.98,5.82,4.58,566.44,13.1,10.0
343,0.05,0.95,5.43,8.17,598.64,14.2,16.0
344,0.06,0.94,5.66,17.73,553.42,13.2,29.2
345,0.07,0.9299999999999999,5.5,15.12,596.44,13.7,45.3
346,0.04,0.96,5.27,18.19,657.2,14.5,65.4
347,0.04,0.96,5.76,13.58,575.78,13.5,80.7
348,0.0,1.0,6.1,0.0,961.72,12.9,10.0
349,0.0,1.0,5.68,0.0,1001.08,13.1,15.7
350,0.0,1.0,5.46,0.0,1055.46,13.2,31.2
351,0.01,0.99,5.51,3.75,1009.2,13.1,47.0
352,0.01,0.99,5.41,1.14,1001.32,14.8,62.9
353,0.0,1.0,5.25,0.0,1048.8,14.8,82.8
354,0.0,1.0,6.08,0.0,1336.92,12.7,10.0
355,0.0,1.0,5.31,0.0,1436.14,13.3,15.9
356,0.0,1.0,5.72,0.0,1413.0,13.2,29.5
357,0.0,1.0,5.43,0.0,1400.32,13.4,43.7
358,0.0,1.0,5.43,0.0,1409.0,13.5,64.5
359,0.0,1.0,5.67,0.0,1424.24,14.0,81.8
360,0.95,0.050000000000000044,1.67,1069.88,1.0,18.4,10.0
361,1.0,0.0,1.48,1146.79,0.0,19.1,21.8
362,0.96,0.040000000000000036,1.58,1061.4,0.8,18.8,38.9
363,0.9,0.09999999999999998,1.72,1040.79,2.0,17.9,58.4
364,0.97,0.030000000000000027,1.46,1114.08,0.6,19.0,76.2
365,0.96,0.040000000000000036,1.58,1080.79,0.8,19.0,94.3
366,0.6,0.4,3.79,360.08,58.28,14.5,10.0
367,0.64,0.36,3.14,437.4,75.86,17.1,19.7
368,0.64,0.36,3.31,430.32,79.82,15.3,36.0
369,0.5,0.5,3.19,336.93,103.08,16.8,50.3
370,0.56,0.43999999999999995,3.23,368.64,66.22,16.4,71.6
371,0.62,0.38,3.53,329.88,64.52,15.2,86.9
372,0.17,0.83,4.6,66.54,308.38,14.1,10.0
373,0.06,0.94,4.43,25.56,370.5,14.0,17.3
374,0.12,0.88,4.2,51.21,361.24,15.5,32.4
375,0.11,0.89,4.24,31.46,391.52,14.6,49.3
376,0.11,0.89,4.31,52.15,384.36,14.7,70.0
377,0.09,0.91,4.24,31.56,379.5,14.4,87.3
378,0.01,0.99,4.7,3.6,734.06,13.8,10.0
379,0.02,0.98,4.39,13.78,738.68,15.5,17.5
380,0.0,1.0,4.42,0.0,747.0,15.6,32.5
381,0.01,0.99,4.33,1.92,762.14,14.8,50.7
382,0.02,0.98,4.51,9.21,743.7,14.5,68.0
383,0.01,0.99,4.28,0.76,778.74,14.1,88.9
384,0.0,1.0,4.65,0.0,1087.24,14.0,10.0
385,0.0,1.0,4.27,0.0,1187.14,14.6,17.0
386,0.0,1.0,4.3,0.0,1139.04,15.2,34.5
387,0.0,1.0,4.33,0.0,1137.94,14.4,51.9
388,0.0,1.0,4.29,0.0,1140.4,14.3,68.6
389,0.0,1.0,4.48,0.0,1149.38,13.6,87.9
390,0.0,1.0,4.82,0.0,1477.52,12.9,10.0
391,0.0,1.0,4.2,0.0,1563.5,15.2,19.1
392,0.0,1.0,4.4,0.0,1523.24,14.6,33.7
393,0.0,1.0,4.5,0.0,1518.34,14.9,49.4
394,0.0,1.0,4.48,0.0,1546.94,14.9,67.4
395,0.0,1.0,4.63,0.0,1497.24,14.1,84.9
396,0.91,0.08999999999999997,1.54,1003.94,1.8,18.8,10.0
397,0.92,0.07999999999999996,1.55,975.81,1.6,18.6,23.0
398,0.97,0.030000000000000027,1.39,1149.2,0.6,19.5,40.9
399,0.9,0.09999999999999998,1.5,999.33,2.0,18.5,58.0
400,0.95,0.050000000000000044,1.48,1034.67,1.0,18.7,77.5
401,0.86,0.14,1.6,907.36,2.8,18.8,96.1
402,0.44,0.56,3.18,271.26,90.12,16.3,10.0
403,0.44,0.56,3.07,287.59,116.84,16.6,19.0
404,0.36,0.64,3.07,186.39,136.48,15.9,37.0
405,0.42,0.5800000000000001,3.11,211.2,131.46,16.3,56.8
406,0.34,0.6599999999999999,3.0,195.2,142.36,16.5,73.2
407,0.42,0.5800000000000001,3.09,289.35,114.44,16.0,90.3
408,0.08,0.92,3.74,36.32,389.88,15.0,10.0
409,0.07,0.9299999999999999,3.7,35.16,396.74,15.1,20.0
410,0.05,0.95,3.42,16.58,467.0,15.6,34.9
411,0.01,0.99,3.64,0.43,445.38,15.0,53.4
412,0.08,0.92,3.7,40.54,412.16,15.8,70.7
413,0.05,0.95,3.39,13.36,461.46,15.8,91.3
414,0.0,1.0,3.61,0.0,816.36,16.0,10.0
415,0.02,0.98,3.52,9.22,817.0,15.1,19.9
416,0.0,1.0,3.6,0.0,838.98,15.0,36.8
417,0.01,0.99,3.55,4.76,816.3,14.8,54.4
418,0.0,1.0,3.53,0.0,859.54,15.0,72.6
419,0.0,1.0,3.64,0.0,821.08,14.9,88.6
420,0.0,1.0,3.68,0.0,1252.2,14.7,10.0
421,0.0,1.0,3.45,0.0,1249.34,15.6,19.4
422,0.0,1.0,3.55,0.0,1226.46,14.9,35.2
423,0.0,1.0,3.52,0.0,1237.54,15.3,55.9
424,0.0,1.0,3.74,0.0,1208.1,14.6,71.8
425,0.01,0.99,3.42,4.18,1280.84,16.2,89.9
426,0.0,1.0,3.6,0.0,1638.0,15.4,10.0
427,0.0,1.0,3.44,0.0,1602.96,14.9,19.0
428,0.0,1.0,3.69,0.0,1605.5,15.2,37.2
429,0.0,1.0,3.53,0.0,1627.64,15.0,54.8
430,0.0,1.0,3.85,0.0,1605.5,15.3,71.1
431,0.0,1.0,3.64,0.0,1624.3,14.7,90.1
432,1.0,0.0,1.73,1490.12,0.0,18.6,10.0
433,1.0,0.0,1.67,1494.66,0.0,18.5,25.9
434,1.0,0.0,1.67,1490.98,0.0,18.6,43.5
435,1.0,0.0,1.73,1496.78,0.0,18.4,61.7
436,1.0,0.0,1.7,1496.08,0.0,18.7,79.6
437,1.0,0.0,1.64,1490.92,0.0,19.0,98.1
438,1.0,0.0,4.21,1483.8,0.0,15.7,10.0
439,1.0,0.0,4.13,1480.62,0.0,15.6,23.4
440,1.0,0.0,4.57,1475.66,0.0,15.6,39.4
441,1.0,0.0,4.58,1489.58,0.0,14.6,57.9
442,1.0,0.0,4.26,1485.22,0.0,15.0,76.2
443,1.0,0.0,4.52,1469.74,0.0,15.2,94.7
444,1.0,0.0,7.6,1460.92,0.0,13.0,10.0
445,1.0,0.0,7.67,1450.44,0.0,12.0,18.8
446,1.0,0.0,8.13,1446.6,0.0,12.2,35.6
447,1.0,0.0,7.83,1446.12,0.0,12.8,53.5
448,1.0,0.0,7.76,1458.24,0.0,13.1,71.8
449,1.0,0.0,8.11,1460.24,0.0,12.9,91.2
450,1.0,0.0,11.43,1439.86,0.0,11.8,10.0
451,1.0,0.0,10.99,1452.4,0.0,11.7,16.9
452,1.0,0.0,10.89,1461.36,0.0,11.2,32.1
453,1.0,0.0,11.06,1456.56,0.0,11.3,53.3
454,1.0,0.0,10.87,1414.92,0.0,11.5,67.6
455,1.0,0.0,11.4,1454.18,0.0,11.4,86.5
456,1.0,0.0,14.72,1437.7,0.0,10.4,10.0
457,1.0,0.0,14.73,1428.92,0.0,10.6,12.7
458,1.0,0.0,14.71,1426.66,0.0,11.1,27.0
459,1.0,0.0,14.52,1436.12,0.0,10.7,47.5
460,1.0,0.0,14.67,1426.62,0.0,10.5,64.6
461,1.0,0.0,14.1,1451.52,0.0,10.7,81.8
462,1.0,0.0,16.96,1421.88,0.0,10.4,10.0
463,1.0,0.0,18.0,1399.86,0.0,10.3,12.5
464,1.0,0.0,17.03,1417.18,0.0,10.3,27.0
465,1.0,0.0,18.23,1383.42,0.0,10.4,41.3
466,1.0,0.0,18.8,1411.52,0.0,10.0,58.6
467,1.0,0.0,18.39,1390.64,0.0,10.2,77.3
468,1.0,0.0,1.51,1391.38,0.0,18.8,10.0
469,1.0,0.0,1.66,1364.88,0.0,19.2,26.2
470,1.0,0.0,1.71,1367.82,0.0,18.2,43.7
471,1.0,0.0,1.8,1363.4,0.0,18.5,62.3
472,1.0,0.0,1.8,1363.4,0.0,18.5,80.4
473,1.0,0.0,1.67,1371.32,0.0,18.9,98.5
474,1.0,0.0,4.33,1103.02,0.0,14.9,10.0
475,1.0,0.0,4.51,1079.14,0.0,16.2,22.6
476,1.0,0.0,4.21,1084.76,0.0,15.3,40.4
477,1.0,0.0,4.15,1105.58,0.0,15.6,58.8
478,1.0,0.0,4.3,1083.6,0.0,15.4,76.7
479,1.0,0.0,3.88,1119.58,0.0,15.5,95.7
480,0.99,0.010000000000000009,7.76,747.0,0.8,12.7,10.0
481,0.97,0.030000000000000027,7.68,690.28,3.62,12.5,19.1
482,0.99,0.010000000000000009,7.87,690.18,1.8,12.8,35.3
483,0.98,0.020000000000000018,7.81,715.26,3.26,14.0,53.6
484,0.97,0.030000000000000027,7.75,724.44,1.78,12.1,73.3
485,0.96,0.040000000000000036,7.61,710.4,11.18,11.7,89.9
486,0.88,0.12,10.75,473.86,25.52,10.9,10.0
487,0.83,0.17000000000000004,10.6,418.14,36.48,11.4,17.6
488,0.8,0.19999999999999996,10.64,395.66,34.62,11.5,32.6
489,0.85,0.15000000000000002,10.3,459.78,30.1,11.3,51.1
490,0.85,0.15000000000000002,10.62,395.66,43.9,11.8,69.0
491,0.75,0.25,10.79,348.5,76.74,12.3,86.3
492,0.61,0.39,13.34,200.46,135.28,10.6,10.0
493,0.51,0.49,12.71,148.76,186.78,10.4,15.0
494,0.44,0.56,13.17,142.8,198.54,10.9,32.7
495,0.44,0.56,12.89,170.08,200.98,10.7,49.6
496,0.41,0.5900000000000001,12.77,144.84,212.62,10.6,66.9
497,0.52,0.48,12.92,170.74,179.38,10.9,83.3
498,0.31,0.69,14.97,60.68,319.74,10.2,10.0
499,0.2,0.8,13.73,36.94,439.74,10.5,15.6
500,0.22,0.78,13.91,51.14,481.64,10.7,29.0
501,0.23,0.77,14.12,48.36,352.7,10.5,47.5
502,0.2,0.8,13.79,63.7,480.68,10.8,63.8
503,0.19,0.81,13.87,34.16,446.98,10.3,83.3
504,1.0,0.0,1.61,1272.7,0.0,18.8,10.0
505,0.98,0.020000000000000018,1.72,1227.7,0.4,18.7,25.6
506,1.0,0.0,1.74,1190.72,0.0,18.6,42.9
507,1.0,0.0,1.57,1243.08,0.0,18.5,61.5
508,1.0,0.0,1.76,1218.54,0.0,18.4,80.1
509,1.0,0.0,1.64,1208.4,0.0,18.4,98.1
510,0.95,0.050000000000000044,4.22,738.04,5.16,15.6,10.0
511,0.87,0.13,4.21,625.36,17.88,16.7,23.3
512,0.9,0.09999999999999998,4.36,621.06,15.44,15.8,41.0
513,0.9,0.09999999999999998,4.31,636.46,14.74,15.1,59.0
514,0.87,0.13,4.03,677.3,17.68,15.6,76.6
515,0.9,0.09999999999999998,4.12,689.62,15.14,14.7,95.9
516,0.6,0.4,6.64,257.1,81.64,12.5,10.0
517,0.45,0.55,6.34,229.26,146.94,13.5,22.1
518,0.43,0.5700000000000001,6.41,164.1,113.4,13.4,38.4
519,0.5,0.5,6.31,244.18,130.56,12.7,56.3
520,0.51,0.49,6.37,215.4,126.7,13.6,74.9
521,0.47,0.53,6.12,207.34,151.94,13.0,94.6
522,0.2,0.8,7.75,59.8,360.26,12.4,10.0
523,0.12,0.88,6.99,29.6,452.8,12.5,21.7
524,0.09,0.91,7.24,17.72,380.36,12.8,38.6
525,0.07,0.9299999999999999,7.19,27.98,433.88,13.1,56.0
526,0.05,0.95,7.14,17.92,478.66,12.6,76.6
527,0.1,0.9,6.84,32.84,438.3,13.1,92.9
528,0.02,0.98,8.07,1.76,699.46,12.0,10.0
529,0.01,0.99,7.56,1.2,780.08,12.1,20.2
530,0.0,1.0,6.93,0.0,852.76,12.6,38.1
531,0.02,0.98,7.35,4.74,824.16,12.5,56.4
532,0.01,0.99,7.44,0.08,782.0,12.6,75.2
533,0.01,0.99,7.19,3.04,762.26,11.6,92.5
534,0.01,0.99,8.04,3.52,1105.22,11.6,10.0
535,0.0,1.0,7.51,0.0,1182.34,12.2,22.2
536,0.0,1.0,7.5,0.0,1198.5,12.4,40.2
537,0.0,1.0,6.85,0.0,1245.44,12.7,57.1
538,0.0,1.0,7.28,0.0,1224.36,12.0,74.9
539,0.0,1.0,7.33,0.0,1209.12,11.8,92.7
540,0.98,0.020000000000000018,1.68,1155.54,0.4,18.7,10.0
541,0.98,0.020000000000000018,1.59,1112.76,0.4,18.9,26.1
542,0.98,0.020000000000000018,1.56,1175.12,0.4,19.1,44.3
543,0.96,0.040000000000000036,1.6,1154.3,0.8,19.3,61.9
544,0.93,0.06999999999999995,1.73,1017.82,1.4,18.3,79.6
545,0.95,0.050000000000000044,1.68,1094.2,1.0,18.7,97.5
546,0.68,0.31999999999999995,3.8,437.2,46.74,15.2,10.0
547,0.68,0.31999999999999995,3.87,390.36,45.46,15.9,23.1
548,0.62,0.38,3.84,372.58,56.2,15.6,42.6
549,0.64,0.36,3.8,446.1,61.36,14.9,60.1
550,0.68,0.31999999999999995,3.71,484.06,43.78,15.6,78.2
551,0.63,0.37,3.66,394.4,56.86,15.6,95.9
552,0.21,0.79,5.13,61.92,265.76,13.2,10.0
553,0.16,0.84,4.75,64.42,291.9,15.1,24.1
554,0.22,0.78,4.85,93.14,289.66,14.0,41.7
555,0.2,0.8,4.95,57.04,264.86,13.8,59.6
556,0.19,0.81,4.99,81.1,285.42,13.2,77.6
557,0.1,0.9,4.96,19.4,305.54,13.6,94.9
558,0.01,0.99,5.36,1.9,661.46,13.7,10.0
559,0.0,1.0,5.15,0.0,652.1,13.0,22.5
560,0.02,0.98,5.04,3.3,704.66,14.0,41.5
561,0.03,0.97,5.19,7.74,619.06,13.5,59.5
562,0.03,0.97,5.1,3.92,663.1,14.7,79.1
563,0.03,0.97,4.95,8.76,666.32,13.5,95.4
564,0.0,1.0,5.4,0.0,1029.0,13.7,10.0
565,0.01,0.99,5.14,1.68,1032.7,13.7,23.5
566,0.0,1.0,4.99,0.0,1072.78,13.8,41.9
567,0.0,1.0,4.95,0.0,1064.24,13.8,58.6
568,0.01,0.99,5.19,2.12,1055.34,14.2,76.3
569,0.0,1.0,5.04,0.0,1053.02,14.2,95.8
570,0.0,1.0,5.23,0.0,1452.12,14.1,10.0
571,0.0,1.0,4.94,0.0,1454.92,13.7,22.7
572,0.0,1.0,5.0,0.0,1447.68,14.0,41.7
573,0.0,1.0,5.15,0.0,1448.1,13.6,58.7
574,0.0,1.0,5.1,0.0,1452.42,13.5,76.3
575,0.0,1.0,5.27,0.0,1459.02,13.6,93.5
576,0.94,0.06000000000000005,1.52,1076.34,1.2,18.9,10.0
577,0.93,0.06999999999999995,1.6,1068.96,1.4,19.0,26.5
578,0.93,0.06999999999999995,1.56,1006.98,1.4,19.0,44.3
579,0.97,0.030000000000000027,1.46,1051.9,0.6,19.1,62.1
580,0.93,0.06999999999999995,1.54,957.74,1.4,19.3,79.7
581,0.9,0.09999999999999998,1.54,1021.52,2.0,19.1,97.9
582,0.42,0.5800000000000001,3.55,248.68,106.74,15.7,10.0
583,0.46,0.54,3.18,305.66,97.76,15.9,25.1
584,0.44,0.56,3.18,284.0,108.68,16.1,43.0
585,0.57,0.43000000000000005,3.28,317.24,78.14,16.0,61.0
586,0.38,0.62,3.5,208.0,118.94,16.2,77.9
587,0.47,0.53,3.23,304.96,108.72,15.9,96.9
588,0.08,0.92,4.32,20.3,371.7,14.5,10.0
589,0.06,0.94,3.98,30.58,414.72,14.6,25.5
590,0.05,0.95,3.83,9.58,421.42,14.6,42.5
591,0.04,0.96,3.87,10.16,438.06,15.5,61.2
592,0.04,0.96,3.89,16.72,404.42,14.8,77.9
593,0.03,0.97,3.85,10.08,432.84,14.9,96.8
594,0.0,1.0,4.17,0.0,772.8,15.2,10.0
595,0.01,0.99,3.89,1.52,794.08,14.2,25.1
596,0.0,1.0,3.9,0.0,826.2,14.3,42.6
597,0.01,0.99,4.08,3.0,767.24,14.5,60.5
598,0.0,1.0,4.05,0.0,808.78,14.6,78.5
599,0.0,1.0,3.85,0.0,818.94,14.5,96.6
600,0.0,1.0,4.25,0.0,1128.62,13.8,10.0
601,0.0,1.0,3.89,0.0,1175.94,14.3,24.6
602,0.0,1.0,4.08,0.0,1180.86,14.2,43.2
603,0.0,1.0,3.71,0.0,1239.4,15.7,60.6
604,0.0,1.0,4.05,0.0,1143.42,15.0,79.1
605,0.0,1.0,3.89,0.0,1190.78,13.9,97.4
606,0.0,1.0,4.23,0.0,1557.24,14.4,10.0
607,0.0,1.0,3.96,0.0,1571.08,14.9,24.9
608,0.0,1.0,3.76,0.0,1622.96,15.3,43.1
609,0.0,1.0,4.08,0.0,1570.78,14.6,61.3
610,0.0,1.0,3.9,0.0,1572.66,14.1,78.5
611,0.0,1.0,4.0,0.0,1591.12,14.7,96.4
612,0.9,0.09999999999999998,1.55,938.56,2.0,18.6,10.0
613,0.87,0.13,1.59,928.54,2.6,19.0,26.5
614,0.89,0.10999999999999999,1.41,940.12,2.2,18.9,44.7
615,0.9,0.09999999999999998,1.46,961.96,2.0,19.2,62.6
616,0.9,0.09999999999999998,1.46,948.38,2.0,18.7,80.4
617,0.89,0.10999999999999999,1.42,949.74,2.2,18.9,98.3
618,0.43,0.5700000000000001,3.14,272.52,110.2,15.2,10.0
619,0.24,0.76,2.99,189.2,149.6,16.5,25.7
620,0.29,0.71,2.9,181.52,158.3,16.7,43.7
621,0.32,0.6799999999999999,2.86,176.36,137.54,16.8,61.7
622,0.26,0.74,2.82,125.9,157.96,15.8,79.6
623,0.36,0.64,2.92,190.54,152.64,17.1,97.3
624,0.04,0.96,3.5,16.16,456.66,15.1,10.0
625,0.04,0.96,3.37,8.58,474.12,14.7,25.2
626,0.02,0.98,3.33,3.4,482.36,15.5,44.4
627,0.02,0.98,3.14,5.52,523.28,16.2,61.8
628,0.03,0.97,3.43,24.06,487.62,15.7,79.1
629,0.02,0.98,3.24,9.26,466.64,16.0,98.0
630,0.0,1.0,3.36,0.0,858.04,14.6,10.0
631,0.0,1.0,3.24,0.0,885.04,15.6,25.6
632,0.0,1.0,3.39,0.0,849.42,15.9,43.0
633,0.0,1.0,3.11,0.0,884.64,15.6,60.5
634,0.0,1.0,3.35,0.0,881.86,15.8,79.0
635,0.0,1.0,3.31,0.0,857.52,15.8,98.1
636,0.0,1.0,3.59,0.0,1259.68,15.4,10.0
637,0.0,1.0,3.29,0.0,1275.84,15.4,25.9
638,0.0,1.0,3.31,0.0,1244.32,15.8,44.1
639,0.0,1.0,3.15,0.0,1290.28,16.8,61.4
640,0.0,1.0,3.24,0.0,1304.28,15.4,79.2
641,0.0,1.0,3.26,0.0,1269.42,16.1,97.3
642,0.0,1.0,3.46,0.0,1642.96,14.6,10.0
643,0.0,1.0,3.1,0.0,1673.38,16.9,25.6
644,0.0,1.0,3.3,0.0,1681.6,15.7,43.4
645,0.0,1.0,3.21,0.0,1640.02,15.9,61.2
646,0.0,1.0,3.08,0.0,1659.96,15.1,78.9
647,0.0,1.0,3.22,0.0,1660.82,14.8,97.6
648,1.0,0.0,1.63,1495.52,0.0,18.8,10.0
649,1.0,0.0,1.68,1489.36,0.0,18.6,28.0
650,1.0,0.0,1.76,1494.12,0.0,19.1,46.0
651,1.0,0.0,1.65,1498.52,0.0,18.9,64.0
652,1.0,0.0,1.49,1496.62,0.0,19.6,82.0
653,1.0,0.0,1.49,1494.52,0.0,19.2,100.0
654,0.99,0.010000000000000009,4.79,1551.5,1.4,15.2,10.0
655,1.0,0.0,4.12,1478.76,0.0,15.8,28.0
656,1.0,0.0,4.6,1486.38,0.0,14.5,46.0
657,0.99,0.010000000000000009,4.41,1460.0,2.0,15.5,64.0
658,1.0,0.0,4.16,1489.84,0.0,15.6,82.0
659,0.99,0.010000000000000009,4.3,1470.4,4.16,15.1,100.0
660,0.99,0.010000000000000009,7.37,1463.84,8.12,13.0,10.0
661,1.0,0.0,7.7,1476.34,0.0,12.4,28.0
662,0.99,0.010000000000000009,7.47,1456.34,3.52,11.6,46.0
663,1.0,0.0,7.37,1501.9,0.0,13.4,64.0
664,0.99,0.010000000000000009,7.49,1550.7,4.32,12.9,82.0
665,0.99,0.010000000000000009,8.09,1658.58,3.32,12.7,100.0
666,0.99,0.010000000000000009,11.21,1460.8,5.9,11.4,10.0
667,0.99,0.010000000000000009,11.23,1433.62,1.06,11.2,28.0
668,1.0,0.0,11.41,1489.72,0.0,11.1,46.0
669,1.0,0.0,11.13,1500.74,0.0,11.2,64.0
670,1.0,0.0,11.07,1452.84,0.0,11.0,82.0
671,0.97,0.030000000000000027,10.58,1391.4,22.28,11.7,100.0
672,1.0,0.0,14.19,1511.34,0.0,10.7,10.0
673,0.96,0.040000000000000036,14.09,1556.86,19.16,10.3,28.0
674,1.0,0.0,14.7,1549.32,0.0,11.0,46.0
675,0.98,0.020000000000000018,13.84,1479.98,25.1,10.7,64.0
676,0.98,0.020000000000000018,13.99,1472.82,18.84,10.9,82.0
677,0.98,0.020000000000000018,14.64,1437.72,27.08,11.0,100.0
678,0.99,0.010000000000000009,17.53,1445.36,14.94,10.1,10.0
679,0.99,0.010000000000000009,18.41,1402.92,13.4,10.3,28.0
680,0.98,0.020000000000000018,18.7,1589.34,2.52,10.3,46.0
681,0.99,0.010000000000000009,17.88,1519.86,1.38,10.8,64.0
682,0.98,0.020000000000000018,17.73,1518.56,18.8,10.2,82.0
683,0.99,0.010000000000000009,18.44,1508.02,6.48,10.4,100.0
684,1.0,0.0,1.66,1404.0,0.0,18.4,10.0
685,1.0,0.0,1.7,1399.18,0.0,18.6,28.0
686,0.99,0.010000000000000009,1.52,1402.12,0.2,18.6,46.0
687,0.99,0.010000000000000009,1.7,1404.64,0.2,18.4,64.0
688,1.0,0.0,1.53,1421.48,0.0,19.3,82.0
689,1.0,0.0,1.74,1417.12,0.0,17.9,100.0
690,1.0,0.0,4.11,1224.92,0.0,15.0,10.0
691,0.99,0.010000000000000009,4.55,1142.5,2.26,15.1,28.0
692,0.98,0.020000000000000018,4.26,1175.34,4.96,15.0,46.0
693,1.0,0.0,3.88,1247.78,0.0,15.9,64.0
694,0.99,0.010000000000000009,4.4,1168.9,4.16,15.5,82.0
695,1.0,0.0,4.52,1202.1,0.0,15.6,100.0
696,0.98,0.020000000000000018,7.84,888.86,10.44,13.0,10.0
697,0.98,0.020000000000000018,7.74,907.08,1.54,12.5,28.0
698,0.96,0.040000000000000036,7.66,882.82,17.68,11.9,46.0
699,0.94,0.06000000000000005,7.48,901.76,25.54,13.1,64.0
700,1.0,0.0,7.64,944.84,0.0,12.7,82.0
701,0.99,0.010000000000000009,7.39,960.56,2.62,12.7,100.0
702,0.97,0.030000000000000027,11.42,663.64,10.94,10.9,10.0
703,0.97,0.030000000000000027,10.85,735.44,13.06,11.0,28.0
704,0.92,0.07999999999999996,10.75,682.42,32.18,11.7,46.0
705,0.95,0.050000000000000044,10.7,674.08,2.92,12.5,64.0
706,0.98,0.020000000000000018,11.25,643.74,13.6,11.4,82.0
707,0.96,0.040000000000000036,10.95,677.04,12.8,11.6,100.0
708,0.86,0.14,13.9,444.84,55.48,10.3,10.0
709,0.86,0.14,13.83,452.56,54.24,10.5,28.0
710,0.83,0.17000000000000004,13.68,464.94,64.0,10.8,46.0
711,0.85,0.15000000000000002,14.25,435.52,37.54,10.5,64.0
712,0.86,0.14,14.19,435.76,53.78,10.0,82.0
713,0.84,0.16000000000000003,14.0,470.5,49.9,10.6,100.0
714,0.65,0.35,16.87,192.58,167.36,10.2,10.0
715,0.61,0.39,17.22,214.7,160.94,10.4,28.0
716,0.65,0.35,16.4,268.26,163.74,10.6,46.0
717,0.62,0.38,16.67,267.76,152.56,10.3,64.0
718,0.62,0.38,16.8,263.44,123.16,10.6,82.0
719,0.61,0.39,16.98,269.1,140.4,10.2,100.0
720,1.0,0.0,1.59,1327.02,0.0,18.9,10.0
721,0.99,0.010000000000000009,1.48,1323.6,0.2,19.1,28.0
722,1.0,0.0,1.68,1315.1,0.0,18.4,46.0
723,0.99,0.010000000000000009,1.59,1332.16,0.2,18.7,64.0
724,1.0,0.0,1.67,1285.36,0.0,18.8,82.0
725,0.99,0.010000000000000009,1.55,1302.58,0.2,18.9,100.0
726,0.95,0.050000000000000044,4.55,883.32,4.16,14.9,10.0
727,0.97,0.030000000000000027,4.39,906.56,3.56,15.0,28.0
728,0.94,0.06000000000000005,4.62,776.66,8.66,15.0,46.0
729,0.98,0.020000000000000018,4.04,933.26,5.44,15.0,64.0
730,0.95,0.050000000000000044,4.35,933.8,10.38,15.3,82.0
731,0.94,0.06000000000000005,4.47,875.74,8.02,15.1,100.0
732,0.83,0.17000000000000004,7.22,451.02,45.06,12.9,10.0
733,0.77,0.22999999999999998,6.96,511.18,52.92,12.7,28.0
734,0.74,0.26,7.03,435.82,53.1,12.4,46.0
735,0.66,0.33999999999999997,7.07,359.62,77.44,12.9,64.0
736,0.61,0.39,7.45,347.12,78.82,12.4,82.0
737,0.69,0.31000000000000005,7.44,425.58,66.34,12.9,100.0
738,0.45,0.55,8.81,131.64,234.58,11.3,10.0
739,0.34,0.6599999999999999,8.71,128.2,238.24,11.7,28.0
740,0.45,0.55,8.95,168.8,199.82,12.1,46.0
741,0.37,0.63,9.2,154.84,239.38,11.3,64.0
742,0.46,0.54,8.68,191.86,214.98,11.7,82.0
743,0.45,0.55,8.77,196.7,196.22,11.4,100.0
744,0.17,0.83,10.03,45.48,541.62,11.8,10.0
745,0.21,0.79,9.74,59.76,469.72,11.4,28.0
746,0.14,0.86,9.71,54.8,538.3,11.9,46.0
747,0.21,0.79,9.83,69.3,497.74,11.5,64.0
748,0.13,0.87,10.15,44.66,498.7,11.1,82.0
749,0.17,0.83,10.32,51.1,466.14,11.6,100.0
750,0.09,0.91,10.36,21.08,824.8,11.3,10.0
751,0.09,0.91,10.68,20.36,741.74,11.1,28.0
752,0.07,0.9299999999999999,10.27,17.0,855.6,11.1,46.0
753,0.02,0.98,9.55,11.28,951.1,11.3,64.0
754,0.06,0.94,9.94,16.72,911.52,11.5,82.0
755,0.06,0.94,10.15,4.96,832.78,11.3,100.0
756,0.98,0.020000000000000018,1.53,1268.08,0.4,19.1,10.0
757,0.99,0.010000000000000009,1.69,1189.7,0.2,19.1,28.0
758,0.99,0.010000000000000009,1.49,1280.78,0.2,19.3,46.0
759,0.99,0.010000000000000009,1.77,1241.62,0.2,18.4,64.0
760,0.99,0.010000000000000009,1.57,1263.68,0.2,19.0,82.0
761,0.99,0.010000000000000009,1.5,1275.24,0.2,19.0,100.0
762,0.84,0.16000000000000003,3.94,675.0,28.14,15.8,10.0
763,0.83,0.17000000000000004,4.26,677.9,20.76,15.6,28.0
764,0.8,0.19999999999999996,4.1,583.2,24.58,16.3,46.0
765,0.86,0.14,3.92,743.46,26.86,15.4,64.0
766,0.83,0.17000000000000004,3.91,692.74,26.18,16.0,82.0
767,0.83,0.17000000000000004,4.13,664.46,21.8,15.1,100.0
768,0.47,0.53,6.36,220.76,145.18,13.0,10.0
769,0.46,0.54,6.05,236.56,130.7,14.4,28.0
770,0.43,0.5700000000000001,6.02,194.76,163.42,12.9,46.0
771,0.42,0.5800000000000001,6.19,227.88,159.86,12.8,64.0
772,0.36,0.64,6.02,185.2,188.54,14.2,82.0
773,0.45,0.55,5.79,234.46,168.66,13.3,100.0
774,0.13,0.87,6.88,53.46,464.64,12.3,10.0
775,0.1,0.9,6.68,42.96,477.86,12.8,28.0
776,0.15,0.85,7.07,65.14,441.82,12.8,46.0
777,0.17,0.83,6.73,64.44,457.14,12.7,64.0
778,0.16,0.84,6.57,60.58,463.62,13.2,82.0
779,0.1,0.9,7.22,30.4,494.14,11.9,100.0
780,0.03,0.97,7.43,9.04,771.14,12.5,10.0
781,0.03,0.97,7.02,11.78,821.72,12.8,28.0
782,0.06,0.94,7.14,21.96,831.12,13.5,46.0
783,0.04,0.96,7.05,9.64,812.94,12.8,64.0
784,0.03,0.97,7.25,15.28,786.48,12.5,82.0
785,0.01,0.99,7.1,2.12,834.22,12.6,100.0
786,0.01,0.99,6.95,2.04,1244.74,12.6,10.0
787,0.0,1.0,7.05,0.0,1217.5,12.1,28.0
788,0.0,1.0,7.15,0.0,1282.24,11.9,46.0
789,0.0,1.0,6.9,0.0,1266.94,12.8,64.0
790,0.01,0.99,7.15,4.26,1185.26,13.0,82.0
791,0.0,1.0,7.06,0.0,1230.9,12.9,100.0
792,0.99,0.010000000000000009,1.57,1209.66,0.2,18.5,10.0
793,0.97,0.030000000000000027,1.6,1192.68,0.6,18.8,28.0
794,0.98,0.020000000000000018,1.69,1187.96,0.4,18.6,46.0
795,0.98,0.020000000000000018,1.56,1171.24,0.4,18.5,64.0
796,0.98,0.020000000000000018,1.76,1115.96,0.4,18.3,82.0
797,0.99,0.010000000000000009,1.63,1161.34,0.2,18.7,100.0
798,0.7,0.30000000000000004,3.78,505.3,62.04,15.9,10.0
799,0.65,0.35,3.83,492.16,55.94,15.8,28.0
800,0.66,0.33999999999999997,3.74,503.1,55.08,16.1,46.0
801,0.65,0.35,3.49,485.74,59.86,15.7,64.0
802,0.66,0.33999999999999997,3.77,431.32,56.3,15.6,82.0
803,0.62,0.38,3.63,544.78,64.56,16.2,100.0
804,0.26,0.74,4.9,127.92,268.78,13.7,10.0
805,0.31,0.69,5.07,169.82,250.72,13.8,28.0
806,0.12,0.88,4.94,52.44,338.18,13.8,46.0
807,0.22,0.78,4.74,134.64,319.74,14.7,64.0
808,0.25,0.75,5.21,131.02,239.92,14.4,82.0
809,0.25,0.75,5.13,100.06,289.18,14.6,100.0
810,0.08,0.92,5.17,30.48,616.38,13.6,10.0
811,0.07,0.9299999999999999,5.69,27.02,613.14,14.3,28.0
812,0.12,0.88,5.59,54.4,602.54,13.1,46.0
813,0.06,0.94,5.24,22.28,637.82,14.4,64.0
814,0.05,0.95,5.86,24.5,619.28,14.1,82.0
815,0.06,0.94,5.54,19.82,595.64,13.6,100.0
816,0.02,0.98,5.7,9.24,1013.04,13.3,10.0
817,0.0,1.0,5.59,0.0,997.58,12.5,28.0
818,0.0,1.0,5.39,0.0,1032.42,14.3,46.0
819,0.0,1.0,5.78,0.0,1016.34,13.8,64.0
820,0.01,0.99,5.43,0.7,1011.28,14.0,82.0
821,0.02,0.98,5.75,3.46,969.9,12.7,100.0
822,0.0,1.0,5.54,0.0,1402.46,13.2,10.0
823,0.0,1.0,5.34,0.0,1430.32,13.4,28.0
824,0.0,1.0,4.98,0.0,1447.36,14.6,46.0
825,0.0,1.0,5.44,0.0,1402.6,14.5,64.0
826,0.01,0.99,5.97,1.88,1339.74,12.5,82.0
827,0.0,1.0,5.52,0.0,1390.62,14.1,100.0
828,0.98,0.020000000000000018,1.52,1085.84,0.4,19.2,10.0
829,0.9,0.09999999999999998,1.57,1052.34,2.0,18.8,28.0
830,0.91,0.08999999999999997,1.67,1030.38,1.8,18.9,46.0
831,0.95,0.050000000000000044,1.47,1103.36,1.0,19.2,64.0
832,0.91,0.08999999999999997,1.69,960.64,1.8,18.0,82.0
833,0.93,0.06999999999999995,1.68,1047.98,1.4,18.4,100.0
834,0.51,0.49,3.44,349.1,86.4,16.2,10.0
835,0.56,0.43999999999999995,3.5,381.98,90.74,14.8,28.0
836,0.57,0.43000000000000005,3.4,356.28,76.12,15.8,46.0
837,0.57,0.43000000000000005,3.4,436.22,81.26,15.6,64.0
838,0.64,0.36,3.35,469.52,82.0,15.3,82.0
839,0.55,0.44999999999999996,3.36,350.42,94.9,15.2,100.0
840,0.16,0.84,4.21,108.26,398.56,14.5,10.0
841,0.19,0.81,4.71,68.94,327.9,14.6,28.0
842,0.18,0.8200000000000001,4.44,74.0,366.32,14.2,46.0
843,0.14,0.86,4.22,70.36,372.34,15.1,64.0
844,0.1,0.9,4.46,42.96,363.12,14.7,82.0
845,0.13,0.87,4.39,81.88,352.32,13.6,100.0
846,0.04,0.96,4.68,14.38,706.2,14.5,10.0
847,0.03,0.97,4.64,9.5,715.62,14.0,28.0
848,0.02,0.98,4.24,13.74,746.76,14.6,46.0
849,0.02,0.98,4.21,5.92,728.42,14.9,64.0
850,0.02,0.98,4.69,13.86,699.36,14.7,82.0
851,0.03,0.97,4.39,10.22,705.04,14.5,100.0
852,0.0,1.0,4.44,0.0,1152.12,15.1,10.0
853,0.01,0.99,4.36,3.78,1140.14,14.8,28.0
854,0.0,1.0,4.46,0.0,1140.46,14.3,46.0
855,0.0,1.0,4.44,0.0,1129.76,15.0,64.0
856,0.01,0.99,4.32,0.5,1152.64,14.3,82.0
857,0.02,0.98,4.56,18.6,1134.98,13.9,100.0
858,0.0,1.0,4.62,0.0,1494.08,14.3,10.0
859,0.0,1.0,4.66,0.0,1506.9,13.7,28.0
860,0.0,1.0,4.48,0.0,1523.84,14.3,46.0
861,0.0,1.0,4.47,0.0,1522.92,14.6,64.0
862,0.0,1.0,4.75,0.0,1498.74,12.9,82.0
863,0.0,1.0,4.75,0.0,1503.54,14.0,100.0
