,Position,HPs,Mps,Aps,Action
0,55,1208.0,28.0,10,"[{'name': 'Punch', 'type': 'physical', 'dmg': 50, 'succ': 0.9, 'mp_cost': 0}, {'name': 'Kick', 'type': 'physical', 'dmg': 60, 'succ': 0.8, 'mp_cost': 0}, {'name': 'Sword cleave', 'type': 'physical', 'dmg': 80, 'succ': 0.8, 'mp_cost': 0}, {'name': 'Magic sword cleave', 'type': 'physical', 'dmg': 100, 'succ': 0.55, 'mp_cost': 10}]"
1,62,1604.0,46.0,10,"[{'name': 'Punch', 'type': 'physical', 'dmg': 50, 'succ': 0.9, 'mp_cost': 0}, {'name': 'Kick', 'type': 'physical', 'dmg': 60, 'succ': 0.8, 'mp_cost': 0}, {'name': 'Sword cleave', 'type': 'physical', 'dmg': 80, 'succ': 0.8, 'mp_cost': 0}, {'name': 'Magic sword cleave', 'type': 'physical', 'dmg': 100, 'succ': 0.55, 'mp_cost': 10}]"
2,277,1604.0,28.0,10,"[{'name': 'Punch', 'type': 'physical', 'dmg': 50, 'succ': 0.9, 'mp_cost': 0}, {'name': 'Kick', 'type': 'physical', 'dmg': 60, 'succ': 0.8, 'mp_cost': 0}, {'name': 'Fire', 'type': 'spell', 'dmg': 75, 'succ': 0.8, 'mp_cost': 10}, {'name': 'Thunder', 'type': 'spell', 'dmg': 110, 'succ': 0.5, 'mp_cost': 20}, {'name': 'Blizzard', 'type': 'spell', 'dmg': 85, 'succ': 0.65, 'mp_cost': 10}]"
3,280,1604.0,82.0,10,"[{'name': 'Punch', 'type': 'physical', 'dmg': 50, 'succ': 0.9, 'mp_cost': 0}, {'name': 'Kick', 'type': 'physical', 'dmg': 60, 'succ': 0.8, 'mp_cost': 0}, {'name': 'Fire', 'type': 'spell', 'dmg': 75, 'succ': 0.8, 'mp_cost': 10}, {'name': 'Thunder', 'type': 'spell', 'dmg': 110, 'succ': 0.5, 'mp_cost': 20}, {'name': 'Blizzard', 'type': 'spell', 'dmg': 85, 'succ': 0.65, 'mp_cost': 10}]"
4,282,2000.0,10.0,10,"[{'name': 'Punch', 'type': 'physical', 'dmg': 50, 'succ': 0.9, 'mp_cost': 0}, {'name': 'Kick', 'type': 'physical', 'dmg': 60, 'succ': 0.8, 'mp_cost': 0}, {'name': 'Fire', 'type': 'spell', 'dmg': 75, 'succ': 0.8, 'mp_cost': 10}, {'name': 'Thunder', 'type': 'spell', 'dmg': 110, 'succ': 0.5, 'mp_cost': 20}, {'name': 'Blizzard', 'type': 'spell', 'dmg': 85, 'succ': 0.65, 'mp_cost': 10}]"
5,494,1604.0,46.0,10,"[{'name': 'Punch', 'type': 'physical', 'dmg': 50, 'succ': 0.9, 'mp_cost': 0}, {'name': 'Kick', 'type': 'physical', 'dmg': 60, 'succ': 0.8, 'mp_cost': 0}, {'name': 'Shiv', 'type': 'physical', 'dmg': 80, 'succ': 0.8, 'mp_cost': 0}, {'name': 'Magic Shiv', 'type': 'spell', 'dmg': 100, 'succ': 0.75, 'mp_cost': 10}]"
6,498,2000.0,10.0,10,"[{'name': 'Punch', 'type': 'physical', 'dmg': 50, 'succ': 0.9, 'mp_cost': 0}, {'name': 'Kick', 'type': 'physical', 'dmg': 60, 'succ': 0.8, 'mp_cost': 0}, {'name': 'Shiv', 'type': 'physical', 'dmg': 80, 'succ': 0.8, 'mp_cost': 0}, {'name': 'Magic Shiv', 'type': 'spell', 'dmg': 100, 'succ': 0.75, 'mp_cost': 10}]"
7,716,2000.0,46.0,10,"[{'name': 'Punch', 'type': 'physical', 'dmg': 50, 'succ': 0.9, 'mp_cost': 0}, {'name': 'Kick', 'type': 'physical', 'dmg': 60, 'succ': 0.8, 'mp_cost': 0}, {'name': 'Skyuppercut', 'type': 'physical', 'dmg': 90, 'succ': 0.75, 'mp_cost': 0}, {'name': 'Chuck Norris roundhouse kick', 'type': 'physical', 'dmg': 9999, 'succ': 0.01, 'mp_cost': 0}]"
8,717,2000.0,64.0,10,"[{'name': 'Punch', 'type': 'physical', 'dmg': 50, 'succ': 0.9, 'mp_cost': 0}, {'name': 'Kick', 'type': 'physical', 'dmg': 60, 'succ': 0.8, 'mp_cost': 0}, {'name': 'Skyuppercut', 'type': 'physical', 'dmg': 90, 'succ': 0.75, 'mp_cost': 0}, {'name': 'Chuck Norris roundhouse kick', 'type': 'physical', 'dmg': 9999, 'succ': 0.01, 'mp_cost': 0}]"
9,719,2000.0,100.0,10,"[{'name': 'Punch', 'type': 'physical', 'dmg': 50, 'succ': 0.9, 'mp_cost': 0}, {'name': 'Kick', 'type': 'physical', 'dmg': 60, 'succ': 0.8, 'mp_cost': 0}, {'name': 'Skyuppercut', 'type': 'physical', 'dmg': 90, 'succ': 0.75, 'mp_cost': 0}, {'name': 'Chuck Norris roundhouse kick', 'type': 'physical', 'dmg': 9999, 'succ': 0.01, 'mp_cost': 0}]"
